%!PS-Adobe-3.0 EPSF-3.0
%%Creator: cairo 1.10.2 (http://cairographics.org)
%%CreationDate: Wed Mar 14 15:15:20 2012
%%Pages: 1
%%BoundingBox: 0 -1 367 309
%%DocumentData: Clean7Bit
%%LanguageLevel: 2
%%EndComments
%%BeginProlog
/cairo_eps_state save def
/dict_count countdictstack def
/op_count count 1 sub def
userdict begin
/q { gsave } bind def
/Q { grestore } bind def
/cm { 6 array astore concat } bind def
/w { setlinewidth } bind def
/J { setlinecap } bind def
/j { setlinejoin } bind def
/M { setmiterlimit } bind def
/d { setdash } bind def
/m { moveto } bind def
/l { lineto } bind def
/c { curveto } bind def
/h { closepath } bind def
/re { exch dup neg 3 1 roll 5 3 roll moveto 0 rlineto
      0 exch rlineto 0 rlineto closepath } bind def
/S { stroke } bind def
/f { fill } bind def
/f* { eofill } bind def
/n { newpath } bind def
/W { clip } bind def
/W* { eoclip } bind def
/BT { } bind def
/ET { } bind def
/pdfmark where { pop globaldict /?pdfmark /exec load put }
    { globaldict begin /?pdfmark /pop load def /pdfmark
    /cleartomark load def end } ifelse
/BDC { mark 3 1 roll /BDC pdfmark } bind def
/EMC { mark /EMC pdfmark } bind def
/cairo_store_point { /cairo_point_y exch def /cairo_point_x exch def } def
/Tj { show currentpoint cairo_store_point } bind def
/TJ {
  {
    dup
    type /stringtype eq
    { show } { -0.001 mul 0 cairo_font_matrix dtransform rmoveto } ifelse
  } forall
  currentpoint cairo_store_point
} bind def
/cairo_selectfont { cairo_font_matrix aload pop pop pop 0 0 6 array astore
    cairo_font exch selectfont cairo_point_x cairo_point_y moveto } bind def
/Tf { pop /cairo_font exch def /cairo_font_matrix where
      { pop cairo_selectfont } if } bind def
/Td { matrix translate cairo_font_matrix matrix concatmatrix dup
      /cairo_font_matrix exch def dup 4 get exch 5 get cairo_store_point
      /cairo_font where { pop cairo_selectfont } if } bind def
/Tm { 2 copy 8 2 roll 6 array astore /cairo_font_matrix exch def
      cairo_store_point /cairo_font where { pop cairo_selectfont } if } bind def
/g { setgray } bind def
/rg { setrgbcolor } bind def
/d1 { setcachedevice } bind def
%%EndProlog
%%Page: 1 1
%%BeginPageSetup
%%PageBoundingBox: 0 -1 367 309
%%EndPageSetup
q 0 -1 367 310 rectclip q
0 308.441 367 -309 re W n
0 g
0.4 w
0 J
0 j
[ 1.2 1.2] 0 d
4 M q 1 0 0 -1 0 308.440552 cm
161.621 169.352 m 191.898 169.352 l S Q
197.957 174.011 m 195.27 164.792 l 195.121 164.292 195.051 163.964 
195.051 163.808 c 195.051 163.753 195.07 163.702 195.113 163.651 c 
195.164 163.609 195.211 163.589 195.254 163.589 c 195.324 163.589 
195.41 163.624 195.504 163.698 c 195.68 163.823 195.977 164.136 196.395 
164.636 c 196.66 164.464 l 196.285 163.941 195.902 163.519 195.52 
163.198 c 195.133 162.878 194.773 162.714 194.441 162.714 c 194.262 
162.714 194.117 162.776 194.004 162.901 c 193.887 163.026 193.832 
163.202 193.832 163.433 c 193.832 163.734 193.91 164.136 194.066 
164.636 c 194.379 165.605 l 193.617 164.437 192.93 163.628 192.316 
163.183 c 191.887 162.87 191.477 162.714 191.082 162.714 c 190.684 
162.714 190.34 162.894 190.051 163.245 c 189.758 163.597 189.613 
164.077 189.613 164.683 c 189.613 165.452 189.855 166.276 190.348 
167.151 c 190.848 168.034 191.504 168.753 192.316 169.308 c 192.949 
169.753 193.539 169.98 194.082 169.98 c 194.363 169.98 194.602 169.921 
194.801 169.808 c 195.008 169.691 195.211 169.499 195.41 169.23 c 
196.176 171.948 l 196.227 172.144 196.273 172.3 196.316 172.417 c 
196.379 172.624 196.41 172.796 196.41 172.933 c 196.41 173.034 196.367 
173.124 196.285 173.198 c 196.18 173.292 196.039 173.339 195.863 
173.339 c 195.746 173.339 195.551 173.316 195.27 173.276 c 195.27 
173.573 l h
195.066 168.464 m 195.066 168.796 194.965 169.062 194.77 169.261 c 
194.582 169.468 194.336 169.573 194.035 169.573 c 193.379 169.573 
192.695 169.03 191.988 167.948 c 191.277 166.862 190.926 165.827 
190.926 164.839 c 190.926 164.452 191.008 164.155 191.176 163.948 c 
191.352 163.737 191.559 163.636 191.801 163.636 c 192.34 163.636 193.02 
164.218 193.832 165.386 c 194.652 166.562 195.066 167.589 195.066 
168.464 c h
195.066 168.464 m f
0.8 w
[] 0.0 d
q 1 0 0 -1 0 308.440552 cm
185.801 100.18 m 185.801 168.68 l S Q
185.801 205.062 m 187.402 203.46 l 185.801 209.062 l 184.203 203.46 l h
185.801 205.062 m f*
0.4 w
q 0.000000000000000061 -1 -1 -0.000000000000000061 0 308.440552 cm
103.379 -185.801 m 104.98 -187.402 l 99.379 -185.801 l 104.98 -184.203 
l h
103.379 -185.801 m S Q
185.801 142.96 m 184.203 144.562 l 185.801 138.96 l 187.402 144.562 l h
185.801 142.96 m f*
q -0.000000000000000184 1 1 0.000000000000000184 0 308.440552 cm
-165.48 185.801 m -163.879 184.203 l -169.48 185.801 l -163.879 187.402 
l h
-165.48 185.801 m S Q
0.8 w
q 1 0 0 -1 0 308.440552 cm
8.789 39.41 m 340.641 39.41 l S Q
0.887838 w
q 0.81192 0 0 -1 0 308.440552 cm
98.455 39.215 m 93.139 47.402 l S Q
q 0.81192 0 0 -1 0 308.440552 cm
103.627 39.504 m 98.311 47.691 l S Q
q 0.81192 0 0 -1 0 308.440552 cm
109.371 39.648 m 104.055 47.836 l S Q
q 0.81192 0 0 -1 0 308.440552 cm
114.707 49.434 m 106.191 44.656 l S Q
q 0.81192 0 0 -1 0 308.440552 cm
120.74 47.566 m 108.491 40.922 l S Q
q 0.81192 0 0 -1 0 308.440552 cm
123.179 43.258 m 114.813 39.199 l S Q
q 0.81192 0 0 -1 0 308.440552 cm
109.371 39.648 m 104.055 47.836 l S Q
q 0.81192 0 0 -1 0 308.440552 cm
125.893 39.504 m 120.577 47.691 l S Q
q 0.81192 0 0 -1 0 308.440552 cm
132.215 39.504 m 126.898 47.691 l S Q
q 0.81192 0 0 -1 0 308.440552 cm
137.959 39.648 m 132.643 47.836 l S Q
q 0.81192 0 0 -1 0 308.440552 cm
114.707 49.434 m 106.191 44.656 l S Q
q 0.81192 0 0 -1 0 308.440552 cm
120.74 47.566 m 108.491 40.922 l S Q
q 0.81192 0 0 -1 0 308.440552 cm
125.893 39.504 m 120.577 47.691 l S Q
q 0.81192 0 0 -1 0 308.440552 cm
151.483 43.688 m 143.112 39.629 l S Q
q 0.81192 0 0 -1 0 308.440552 cm
143.006 49.863 m 134.49 45.086 l S Q
q 0.81192 0 0 -1 0 308.440552 cm
149.039 47.996 m 136.79 41.352 l S Q
q 0.81192 0 0 -1 0 308.440552 cm
160.514 40.078 m 155.197 48.266 l S Q
q 0.81192 0 0 -1 0 308.440552 cm
166.258 40.223 m 160.947 48.41 l S Q
q 0.81192 0 0 -1 0 308.440552 cm
154.192 40.078 m 148.876 48.266 l S Q
0.4 w
[ 1.2 1.2] 0 d
q 1 0 0 -1 0 308.440552 cm
9.766 99.426 m 343.68 99.426 l S Q
0 0 0.992157 rg
0.8 w
[] 0.0 d
q 1 0 0 -1 0 308.440552 cm
8.715 100.738 m 8.715 100.738 170.141 101.5 170.895 159.352 c 171.145 
102.422 343.715 101.867 343.715 101.867 c S Q
0.996078 0.992157 1 rg
161.457 291.011 16.484 -243.617 re f
0 g
0.8 w
q 1 0 0 -1 0 308.440552 cm
161.457 17.43 16.484 243.617 re S Q
0.8 w
q 1 0 0 -1 0 308.440552 cm
235 99.656 m 235 99.656 235.195 99.672 235 88.055 c 207.332 87.426 
207.832 42.262 207.832 42.262 c S Q
q 1 0 0 -1 0 308.440552 cm
204.777 41.652 m 204.777 101.484 l 241.41 101.484 l S Q
197.117 238.05 m 197.883 238.05 l 195.82 231.3 l 196.477 231.3 197.016 
231.487 197.445 231.862 c 197.871 232.245 198.262 233.003 198.617 
234.128 c 199.164 235.831 l 199.422 236.644 199.762 237.245 200.18 
237.644 c 200.605 238.038 201.055 238.237 201.523 238.237 c 201.656 
238.237 201.793 238.214 201.93 238.175 c 201.93 237.878 l 201.469 
237.878 201.121 237.519 200.883 236.8 c 200.289 234.972 l 199.953 
233.98 199.605 233.214 199.242 232.675 c 198.875 232.144 198.391 
231.722 197.789 231.409 c 197.195 231.109 196.508 230.956 195.727 
230.956 c 194.758 227.737 l 193.961 227.737 l 194.945 230.956 l 194.266 
231.05 193.719 231.335 193.305 231.816 c 192.898 232.304 192.695 
232.851 192.695 233.456 c 192.695 233.995 192.84 234.784 193.133 
235.816 c 193.289 236.366 193.367 236.773 193.367 237.034 c 193.367 
237.585 193.18 237.862 192.805 237.862 c 192.781 237.862 192.75 237.862 
192.711 237.862 c 192.758 238.144 l 192.922 238.206 193.09 238.237 
193.258 238.237 c 193.664 238.237 193.98 238.085 194.211 237.784 c 
194.449 237.48 194.57 237.073 194.57 236.566 c 194.57 236.073 194.449 
235.441 194.211 234.659 c 193.969 233.878 193.852 233.323 193.852 
233.003 c 193.852 232.573 193.953 232.206 194.164 231.894 c 194.383 
231.581 194.672 231.382 195.039 231.3 c h
197.117 238.05 m f
221.109 204.038 m 222.555 204.038 223.281 203.046 223.281 201.069 c 
223.281 199.87 222.984 198.542 222.391 197.085 c 221.805 195.624 
221.141 194.538 220.391 193.819 c 219.641 193.101 218.863 192.741 
218.062 192.741 c 217.414 192.741 216.883 193.015 216.469 193.569 c 
216.062 194.132 215.859 194.823 215.859 195.648 c 215.859 196.179 
215.973 196.913 216.203 197.851 c 216.441 198.788 216.797 199.734 
217.266 200.694 c 217.734 201.651 218.32 202.448 219.031 203.085 c 
219.738 203.718 220.43 204.038 221.109 204.038 c h
221.594 198.726 m 221.938 199.827 222.109 200.898 222.109 201.929 c 
222.109 203.116 221.773 203.71 221.109 203.71 c 220.516 203.71 219.93 
203.265 219.359 202.382 c 218.797 201.495 218.281 200.276 217.812 
198.726 c h
217.656 198.288 m 217.176 196.788 216.938 195.64 216.938 194.851 c 
216.938 194.327 217.039 193.901 217.25 193.569 c 217.469 193.234 
217.789 193.069 218.219 193.069 c 218.562 193.069 218.883 193.21 
219.188 193.491 c 219.5 193.773 219.859 194.339 220.266 195.194 c 
220.68 196.046 221.07 197.077 221.438 198.288 c h
217.656 198.288 m f
244.102 228.097 m 244.867 228.097 l 242.805 221.347 l 243.461 221.347 
244 221.534 244.43 221.909 c 244.855 222.292 245.246 223.05 245.602 
224.175 c 246.148 225.878 l 246.406 226.691 246.746 227.292 247.164 
227.691 c 247.59 228.085 248.039 228.284 248.508 228.284 c 248.641 
228.284 248.777 228.261 248.914 228.222 c 248.914 227.925 l 248.453 
227.925 248.105 227.566 247.867 226.847 c 247.273 225.019 l 246.938 
224.026 246.59 223.261 246.227 222.722 c 245.859 222.191 245.375 
221.769 244.773 221.456 c 244.18 221.155 243.492 221.003 242.711 
221.003 c 241.742 217.784 l 240.945 217.784 l 241.93 221.003 l 241.25 
221.097 240.703 221.382 240.289 221.862 c 239.883 222.351 239.68 
222.898 239.68 223.503 c 239.68 224.042 239.824 224.831 240.117 225.862 
c 240.273 226.413 240.352 226.819 240.352 227.081 c 240.352 227.632 
240.164 227.909 239.789 227.909 c 239.766 227.909 239.734 227.909 
239.695 227.909 c 239.742 228.191 l 239.906 228.253 240.074 228.284 
240.242 228.284 c 240.648 228.284 240.965 228.132 241.195 227.831 c 
241.434 227.526 241.555 227.12 241.555 226.612 c 241.555 226.12 241.434 
225.487 241.195 224.706 c 240.953 223.925 240.836 223.37 240.836 223.05 
c 240.836 222.62 240.938 222.253 241.148 221.941 c 241.367 221.628 
241.656 221.429 242.023 221.347 c h
244.102 228.097 m f
253.18 222.425 m 252.227 219.112 l 252.133 218.675 l 252.121 218.62 
252.117 218.585 252.117 218.566 c 252.117 218.511 252.133 218.464 
252.164 218.425 c 252.184 218.394 252.215 218.378 252.258 218.378 c 
252.297 218.378 252.355 218.401 252.43 218.456 c 252.555 218.55 252.719 
218.745 252.93 219.05 c 253.102 218.925 l 252.871 218.589 252.637 
218.331 252.398 218.144 c 252.168 217.968 251.949 217.878 251.742 
217.878 c 251.605 217.878 251.5 217.917 251.43 217.987 c 251.355 
218.058 251.32 218.163 251.32 218.3 c 251.32 218.456 251.355 218.663 
251.43 218.925 c 251.539 219.3 l 251.109 218.737 250.715 218.347 
250.352 218.128 c 250.102 217.964 249.852 217.878 249.602 217.878 c 
249.359 217.878 249.152 217.98 248.977 218.175 c 248.809 218.37 248.727 
218.644 248.727 218.987 c 248.727 219.507 248.883 220.054 249.195 
220.628 c 249.508 221.198 249.902 221.663 250.383 222.019 c 250.758 
222.288 251.105 222.425 251.43 222.425 c 251.637 222.425 251.805 222.37 
251.93 222.269 c 252.062 222.163 252.164 221.991 252.227 221.753 c 
252.414 222.3 l h
251.445 222.175 m 251.234 222.175 251.016 222.073 250.789 221.878 c 
250.453 221.597 250.156 221.183 249.898 220.644 c 249.637 220.101 
249.508 219.612 249.508 219.175 c 249.508 218.944 249.559 218.769 
249.664 218.644 c 249.777 218.519 249.906 218.456 250.055 218.456 c 
250.406 218.456 250.793 218.714 251.211 219.237 c 251.773 219.933 
252.055 220.648 252.055 221.378 c 252.055 221.659 251.996 221.862 
251.883 221.987 c 251.777 222.112 251.633 222.175 251.445 222.175 c h
251.445 222.175 m f
329.09 233.136 m 321.23 233.136 l 321.34 233.433 l 321.754 233.441 
322.035 233.472 322.184 233.526 c 322.402 233.62 322.562 233.745 
322.668 233.901 c 322.824 234.14 322.996 234.573 323.184 235.198 c 
325.043 241.636 l 325.199 242.167 325.277 242.558 325.277 242.808 c 
325.277 243.003 325.203 243.155 325.059 243.261 c 324.922 243.374 
324.656 243.433 324.262 243.433 c 324.168 243.433 324.094 243.437 
324.043 243.448 c 324.137 243.73 l 328.465 243.73 l 328.402 243.448 l 
327.91 243.448 327.562 243.401 327.355 243.308 c 327.156 243.214 
326.988 243.058 326.855 242.839 c 326.762 242.702 326.609 242.265 
326.402 241.526 c 324.559 235.198 l 324.422 234.718 324.355 234.386 
324.355 234.198 c 324.355 234.073 324.422 233.952 324.559 233.839 c 
324.652 233.753 324.855 233.714 325.168 233.714 c 326.184 233.714 l 
326.934 233.714 327.527 233.808 327.965 233.995 c 328.285 234.14 
328.582 234.355 328.855 234.636 c 329 234.792 329.254 235.175 329.621 
235.792 c 329.824 236.151 l 330.121 236.151 l h
329.09 233.136 m f
q 1 0 0 -1 0 308.440552 cm
318.961 41.066 m 318.961 99.188 l S Q
318.961 264.171 m 320.562 262.573 l 318.961 268.171 l 317.363 262.573 l 
h
318.961 264.171 m f*
0.4 w
q 0.000000000000000061 -1 -1 -0.000000000000000061 0 308.440552 cm
44.27 -318.961 m 45.867 -320.562 l 40.27 -318.961 l 45.867 -317.363 l h
44.27 -318.961 m S Q
318.961 212.452 m 317.363 214.054 l 318.961 208.452 l 320.562 214.054 l 
h
318.961 212.452 m f*
q -0.000000000000000184 1 1 0.000000000000000184 0 308.440552 cm
-95.988 318.961 m -94.387 317.363 l -99.988 318.961 l -94.387 320.562 l 
h
-95.988 318.961 m S Q
0.8 w
q 1 0 0 -1 0 308.440552 cm
0.004 297.07 m 366.148 297.07 l S Q
q 1 0 0 -1 0 308.440552 cm
11.41 296.969 m 2.781 308.188 l S Q
q 1 0 0 -1 0 308.440552 cm
18.746 296.969 m 10.117 308.188 l S Q
q 1 0 0 -1 0 308.440552 cm
26.078 296.969 m 17.449 308.188 l S Q
q 1 0 0 -1 0 308.440552 cm
33.414 296.969 m 24.785 308.188 l S Q
q 1 0 0 -1 0 308.440552 cm
40.75 296.969 m 32.121 308.188 l S Q
q 1 0 0 -1 0 308.440552 cm
48.082 296.969 m 39.453 308.188 l S Q
q 1 0 0 -1 0 308.440552 cm
55.418 296.969 m 46.789 308.188 l S Q
q 1 0 0 -1 0 308.440552 cm
62.754 296.969 m 54.125 308.188 l S Q
q 1 0 0 -1 0 308.440552 cm
70.086 296.969 m 61.457 308.188 l S Q
q 1 0 0 -1 0 308.440552 cm
77.422 296.969 m 68.793 308.188 l S Q
q 1 0 0 -1 0 308.440552 cm
84.758 296.969 m 76.129 308.188 l S Q
q 1 0 0 -1 0 308.440552 cm
92.09 296.969 m 83.461 308.188 l S Q
q 1 0 0 -1 0 308.440552 cm
99.426 296.969 m 90.797 308.188 l S Q
q 1 0 0 -1 0 308.440552 cm
106.762 296.969 m 98.133 308.188 l S Q
q 1 0 0 -1 0 308.440552 cm
114.094 296.969 m 105.465 308.188 l S Q
q 1 0 0 -1 0 308.440552 cm
121.43 296.969 m 112.801 308.188 l S Q
q 1 0 0 -1 0 308.440552 cm
128.766 296.969 m 120.137 308.188 l S Q
q 1 0 0 -1 0 308.440552 cm
136.098 296.969 m 127.469 308.188 l S Q
q 1 0 0 -1 0 308.440552 cm
143.434 296.969 m 134.805 308.188 l S Q
q 1 0 0 -1 0 308.440552 cm
150.77 296.969 m 142.141 308.188 l S Q
q 1 0 0 -1 0 308.440552 cm
158.102 296.969 m 149.473 308.188 l S Q
q 1 0 0 -1 0 308.440552 cm
165.438 296.969 m 156.809 308.188 l S Q
q 1 0 0 -1 0 308.440552 cm
172.773 296.969 m 164.145 308.188 l S Q
q 1 0 0 -1 0 308.440552 cm
180.105 296.969 m 171.477 308.188 l S Q
q 1 0 0 -1 0 308.440552 cm
187.441 296.969 m 178.812 308.188 l S Q
q 1 0 0 -1 0 308.440552 cm
194.777 296.969 m 186.148 308.188 l S Q
q 1 0 0 -1 0 308.440552 cm
202.113 296.969 m 193.48 308.188 l S Q
q 1 0 0 -1 0 308.440552 cm
209.445 296.969 m 200.816 308.188 l S Q
q 1 0 0 -1 0 308.440552 cm
216.781 296.969 m 208.152 308.188 l S Q
q 1 0 0 -1 0 308.440552 cm
224.117 296.969 m 215.484 308.188 l S Q
q 1 0 0 -1 0 308.440552 cm
231.449 296.969 m 222.82 308.188 l S Q
q 1 0 0 -1 0 308.440552 cm
238.785 296.969 m 230.156 308.188 l S Q
q 1 0 0 -1 0 308.440552 cm
246.121 296.969 m 237.488 308.188 l S Q
q 1 0 0 -1 0 308.440552 cm
253.453 296.969 m 244.824 308.188 l S Q
q 1 0 0 -1 0 308.440552 cm
260.789 296.969 m 252.16 308.188 l S Q
q 1 0 0 -1 0 308.440552 cm
268.125 296.969 m 259.492 308.188 l S Q
q 1 0 0 -1 0 308.440552 cm
275.457 296.969 m 266.828 308.188 l S Q
q 1 0 0 -1 0 308.440552 cm
282.793 296.969 m 274.164 308.188 l S Q
q 1 0 0 -1 0 308.440552 cm
290.129 296.969 m 281.5 308.188 l S Q
q 1 0 0 -1 0 308.440552 cm
297.461 296.969 m 288.832 308.188 l S Q
q 1 0 0 -1 0 308.440552 cm
304.797 296.969 m 296.168 308.188 l S Q
q 1 0 0 -1 0 308.440552 cm
312.133 296.969 m 303.504 308.188 l S Q
q 1 0 0 -1 0 308.440552 cm
319.465 296.969 m 310.836 308.188 l S Q
q 1 0 0 -1 0 308.440552 cm
326.801 296.969 m 318.172 308.188 l S Q
q 1 0 0 -1 0 308.440552 cm
334.137 296.969 m 325.508 308.188 l S Q
q 1 0 0 -1 0 308.440552 cm
341.469 296.969 m 332.84 308.188 l S Q
q 1 0 0 -1 0 308.440552 cm
348.805 296.969 m 340.176 308.188 l S Q
q 1 0 0 -1 0 308.440552 cm
356.141 296.969 m 347.512 308.188 l S Q
q 1 0 0 -1 0 308.440552 cm
363.473 296.969 m 354.844 308.188 l S Q
q 1 0 0 -1 0 308.440552 cm
163.453 170.383 m 168.477 170.383 l S Q
q 1 0 0 -1 0 308.440552 cm
163.453 173.586 m 168.477 173.586 l S Q
q 1 0 0 -1 0 308.440552 cm
163.453 176.789 m 168.477 176.789 l S Q
q 1 0 0 -1 0 308.440552 cm
163.453 179.992 m 168.477 179.992 l S Q
q 1 0 0 -1 0 308.440552 cm
163.453 183.191 m 168.477 183.191 l S Q
q 1 0 0 -1 0 308.440552 cm
163.453 186.395 m 168.477 186.395 l S Q
q 1 0 0 -1 0 308.440552 cm
163.453 189.598 m 168.477 189.598 l S Q
q 1 0 0 -1 0 308.440552 cm
163.453 192.801 m 168.477 192.801 l S Q
q 1 0 0 -1 0 308.440552 cm
163.453 196.004 m 168.477 196.004 l S Q
q 1 0 0 -1 0 308.440552 cm
163.453 199.207 m 168.477 199.207 l S Q
q 1 0 0 -1 0 308.440552 cm
163.453 202.406 m 168.477 202.406 l S Q
q 1 0 0 -1 0 308.440552 cm
163.453 205.609 m 168.477 205.609 l S Q
q 1 0 0 -1 0 308.440552 cm
163.453 208.812 m 168.477 208.812 l S Q
q 1 0 0 -1 0 308.440552 cm
163.453 212.016 m 168.477 212.016 l S Q
q 1 0 0 -1 0 308.440552 cm
163.453 215.219 m 168.477 215.219 l S Q
q 1 0 0 -1 0 308.440552 cm
163.453 218.422 m 168.477 218.422 l S Q
q 1 0 0 -1 0 308.440552 cm
163.453 221.621 m 168.477 221.621 l S Q
q 1 0 0 -1 0 308.440552 cm
163.453 224.824 m 168.477 224.824 l S Q
q 1 0 0 -1 0 308.440552 cm
163.453 228.027 m 168.477 228.027 l S Q
q 1 0 0 -1 0 308.440552 cm
163.453 231.23 m 168.477 231.23 l S Q
q 1 0 0 -1 0 308.440552 cm
163.453 234.434 m 168.477 234.434 l S Q
q 1 0 0 -1 0 308.440552 cm
163.453 237.637 m 168.477 237.637 l S Q
q 1 0 0 -1 0 308.440552 cm
163.453 240.836 m 168.477 240.836 l S Q
q 1 0 0 -1 0 308.440552 cm
163.453 244.039 m 168.477 244.039 l S Q
q 1 0 0 -1 0 308.440552 cm
163.453 247.242 m 168.477 247.242 l S Q
q 1 0 0 -1 0 308.440552 cm
163.453 250.445 m 168.477 250.445 l S Q
q 1 0 0 -1 0 308.440552 cm
163.453 253.648 m 168.477 253.648 l S Q
q 1 0 0 -1 0 308.440552 cm
163.453 256.848 m 168.477 256.848 l S Q
q 1 0 0 -1 0 308.440552 cm
171.262 170.383 m 176.285 170.383 l S Q
q 1 0 0 -1 0 308.440552 cm
171.262 173.586 m 176.285 173.586 l S Q
q 1 0 0 -1 0 308.440552 cm
171.262 176.789 m 176.285 176.789 l S Q
q 1 0 0 -1 0 308.440552 cm
171.262 179.992 m 176.285 179.992 l S Q
q 1 0 0 -1 0 308.440552 cm
171.262 183.191 m 176.285 183.191 l S Q
q 1 0 0 -1 0 308.440552 cm
171.262 186.395 m 176.285 186.395 l S Q
q 1 0 0 -1 0 308.440552 cm
171.262 189.598 m 176.285 189.598 l S Q
q 1 0 0 -1 0 308.440552 cm
171.262 192.801 m 176.285 192.801 l S Q
q 1 0 0 -1 0 308.440552 cm
171.262 196.004 m 176.285 196.004 l S Q
q 1 0 0 -1 0 308.440552 cm
171.262 199.207 m 176.285 199.207 l S Q
q 1 0 0 -1 0 308.440552 cm
171.262 202.406 m 176.285 202.406 l S Q
q 1 0 0 -1 0 308.440552 cm
171.262 205.609 m 176.285 205.609 l S Q
q 1 0 0 -1 0 308.440552 cm
171.262 208.812 m 176.285 208.812 l S Q
q 1 0 0 -1 0 308.440552 cm
171.262 212.016 m 176.285 212.016 l S Q
q 1 0 0 -1 0 308.440552 cm
171.262 215.219 m 176.285 215.219 l S Q
q 1 0 0 -1 0 308.440552 cm
171.262 218.422 m 176.285 218.422 l S Q
q 1 0 0 -1 0 308.440552 cm
171.262 221.621 m 176.285 221.621 l S Q
q 1 0 0 -1 0 308.440552 cm
171.262 224.824 m 176.285 224.824 l S Q
q 1 0 0 -1 0 308.440552 cm
171.262 228.027 m 176.285 228.027 l S Q
q 1 0 0 -1 0 308.440552 cm
171.262 231.23 m 176.285 231.23 l S Q
q 1 0 0 -1 0 308.440552 cm
171.262 234.434 m 176.285 234.434 l S Q
q 1 0 0 -1 0 308.440552 cm
171.262 237.637 m 176.285 237.637 l S Q
q 1 0 0 -1 0 308.440552 cm
171.262 240.836 m 176.285 240.836 l S Q
q 1 0 0 -1 0 308.440552 cm
171.262 244.039 m 176.285 244.039 l S Q
q 1 0 0 -1 0 308.440552 cm
171.262 247.242 m 176.285 247.242 l S Q
q 1 0 0 -1 0 308.440552 cm
171.262 250.445 m 176.285 250.445 l S Q
q 1 0 0 -1 0 308.440552 cm
171.262 253.648 m 176.285 253.648 l S Q
q 1 0 0 -1 0 308.440552 cm
171.262 256.848 m 176.285 256.848 l S Q
27.656 116.706 m 26.109 111.316 l 26.609 111.835 27.047 112.191 27.422 
112.378 c 27.797 112.573 28.188 112.675 28.594 112.675 c 29.164 112.675 
29.633 112.48 30 112.097 c 30.363 111.722 30.547 111.206 30.547 110.55 
c 30.547 109.714 30.305 108.882 29.828 108.05 c 29.348 107.214 28.742 
106.566 28.016 106.097 c 27.297 105.636 26.582 105.409 25.875 105.409 c 
25.094 105.409 24.285 105.706 23.453 106.3 c 25.828 114.472 l 26.016 
115.105 26.109 115.476 26.109 115.581 c 26.109 115.714 26.066 115.819 
25.984 115.894 c 25.859 115.987 25.68 116.034 25.453 116.034 c 25.336 
116.034 25.172 116.011 24.953 115.972 c 24.953 116.269 l h
24.625 106.206 m 25.145 105.925 25.602 105.784 26 105.784 c 26.457 
105.784 26.93 105.948 27.422 106.284 c 27.922 106.616 28.348 107.179 
28.703 107.972 c 29.066 108.773 29.25 109.581 29.25 110.394 c 29.25 
110.87 29.129 111.245 28.891 111.519 c 28.66 111.788 28.383 111.925 
28.062 111.925 c 27.57 111.925 27.094 111.73 26.625 111.347 c 26.164 
110.96 25.836 110.417 25.641 109.722 c h
24.625 106.206 m f
0.801672 w
q 0.995833 0 0 -1 0 308.440552 cm
20.456 99.699 m 20.456 295.02 l S Q
20.371 205.534 m 21.969 203.933 l 20.371 209.542 l 18.777 203.933 l h
20.371 205.534 m f*
0.400836 w
q 0.000000000000000061 -1 -0.995833 -0.000000000000000061 0 308.440552 cm
102.906 -20.456 m 104.508 -22.061 l 98.898 -20.456 l 104.508 -18.856 l 
h
102.906 -20.456 m S Q
20.371 16.628 m 18.777 18.234 l 20.371 12.62 l 21.969 18.234 l h
20.371 16.628 m f*
q -0.000000000000000183 1 0.995833 0.000000000000000184 0 308.440552 cm
-291.812 20.456 m -290.207 18.856 l -295.82 20.456 l -290.207 22.061 l 
h
-291.812 20.456 m S Q
138.566 128.046 m 140.348 129.265 l 141.082 131.827 l 141.414 132.952 
141.801 133.784 142.238 134.327 c 142.684 134.878 143.242 135.155 
143.91 135.155 c 144.305 135.155 144.629 135.034 144.879 134.796 c 
145.129 134.554 145.254 134.257 145.254 133.905 c 145.254 133.413 
145.074 132.937 144.723 132.468 c 144.129 131.687 143.102 130.804 
141.645 129.827 c 140.723 126.655 l 140.605 126.28 140.551 125.991 
140.551 125.796 c 140.551 125.452 140.637 125.187 140.816 124.999 c 
141.004 124.812 141.23 124.718 141.504 124.718 c 141.805 124.718 
142.145 124.859 142.52 125.14 c 142.895 125.429 143.262 125.913 143.629 
126.593 c 143.926 126.499 l 143.496 125.655 143.035 125.046 142.535 
124.671 c 142.035 124.308 141.551 124.124 141.082 124.124 c 140.613 
124.124 140.227 124.276 139.926 124.577 c 139.621 124.89 139.473 
125.312 139.473 125.843 c 139.473 126.144 139.527 126.484 139.645 
126.859 c 140.207 128.749 l 138.738 127.765 l h
141.801 130.312 m 142.996 131.187 143.793 131.882 144.191 132.405 c 
144.598 132.937 144.801 133.409 144.801 133.827 c 144.801 134.046 
144.73 134.218 144.598 134.343 c 144.461 134.476 144.273 134.546 
144.035 134.546 c 143.754 134.546 143.496 134.437 143.27 134.218 c 
142.965 133.913 142.707 133.398 142.488 132.671 c h
141.801 130.312 m f
0.8 w
q 1 0 0 -1 0 308.440552 cm
148.496 99.809 m 148.496 259.812 l S Q
148.496 205.433 m 150.094 203.835 l 148.496 209.433 l 146.895 203.835 l 
h
148.496 205.433 m f*
0.4 w
q 0.000000000000000061 -1 -1 -0.000000000000000061 0 308.440552 cm
103.008 -148.496 m 104.605 -150.094 l 99.008 -148.496 l 104.605 
-146.895 l h
103.008 -148.496 m S Q
148.496 51.827 m 146.895 53.429 l 148.496 47.827 l 150.094 53.429 l h
148.496 51.827 m f*
q -0.000000000000000184 1 1 0.000000000000000184 0 308.440552 cm
-256.613 148.496 m -255.012 146.895 l -260.613 148.496 l -255.012 
150.094 l h
-256.613 148.496 m S Q
0.4 w
[ 1.2 1.2] 0 d
q 1 0 0 -1 0 308.440552 cm
144.902 261.141 m 177 261.141 l S Q
0.8 w
[] 0.0 d
q 1 0 0 -1 0 308.440552 cm
170.508 266.988 m 170.508 295.949 l S Q
170.508 38.249 m 172.109 36.651 l 170.508 42.249 l 168.906 36.651 l h
170.508 38.249 m f*
0.4 w
q 0.000000000000000061 -1 -1 -0.000000000000000061 0 308.440552 cm
270.191 -170.508 m 271.789 -172.109 l 266.191 -170.508 l 271.789 
-168.906 l h
270.191 -170.508 m S Q
0.8 w
q 1 0 0 -1 0 308.440552 cm
198.066 294.551 m 169.109 294.551 l S Q
194.867 13.89 m 193.27 12.292 l 198.867 13.89 l 193.27 15.491 l h
194.867 13.89 m f*
0.4 w
q -1 -0.000000000000000122 -0.000000000000000122 1 0 308.440552 cm
-194.867 -294.551 m -193.27 -296.148 l -198.867 -294.551 l -193.27 
-292.949 l h
-194.867 -294.551 m S Q
190.102 24.069 m 192.789 24.507 l 191.664 20.71 l 192.578 22.261 
193.406 23.351 194.148 23.976 c 194.574 24.327 194.918 24.507 195.18 
24.507 c 195.355 24.507 195.492 24.452 195.586 24.351 c 195.688 24.245 
195.742 24.101 195.742 23.913 c 195.742 23.569 195.652 23.241 195.477 
22.929 c 195.352 22.687 195.168 22.569 194.93 22.569 c 194.812 22.569 
194.711 22.605 194.617 22.679 c 194.531 22.761 194.48 22.886 194.461 
23.054 c 194.449 23.148 194.43 23.21 194.398 23.241 c 194.355 23.28 
194.305 23.304 194.242 23.304 c 194.156 23.304 194.074 23.28 193.992 
23.241 c 193.855 23.167 193.652 22.964 193.383 22.632 c 192.945 22.12 
192.477 21.46 191.977 20.648 c 191.758 20.304 191.57 19.917 191.414 
19.491 c 191.195 18.898 191.07 18.538 191.039 18.413 c 190.789 17.429 l 
189.586 17.429 l 191.039 22.288 l 191.203 22.851 191.289 23.249 191.289 
23.491 c 191.289 23.585 191.246 23.663 191.164 23.726 c 191.059 23.808 
190.922 23.851 190.758 23.851 c 190.641 23.851 190.438 23.823 190.148 
23.773 c h
190.102 24.069 m f
175.227 39.698 m 180.195 39.698 l 180.195 39.495 l 174.789 33.87 l 
177.07 33.87 l 177.609 33.87 177.953 33.89 178.102 33.933 c 178.246 
33.972 178.383 34.062 178.508 34.198 c 178.633 34.331 178.766 34.577 
178.914 34.933 c 179.211 34.933 l 178.523 32.808 l 173.43 32.808 l 
173.43 33.042 l 178.852 38.667 l 176.602 38.667 l 176.121 38.667 
175.836 38.651 175.742 38.62 c 175.594 38.589 175.449 38.503 175.305 
38.37 c 175.156 38.245 175.012 38.026 174.867 37.714 c 174.57 37.714 l 
h
175.227 39.698 m f
1.6 w
q 1 0 0 -1 0 308.440552 cm
168.352 28.543 m 167.164 6.707 179.801 6.09 211.121 5.957 c S Q
204.723 302.456 m 201.535 299.245 l 212.723 302.491 l 201.508 305.644 l 
h
204.723 302.456 m f*
0.799993 w
q -1 -0.00425929 -0.00425929 1 0 308.440552 cm
-204.693 -6.856 m -201.492 -10.054 l -212.693 -6.855 l -201.492 -3.655 
l h
-204.693 -6.856 m S Q
219.418 297.355 m 217.402 295.73 l 217.715 295.784 218.004 295.808 
218.277 295.808 c 218.535 295.808 218.777 295.792 218.996 295.761 c 
219.223 295.73 219.699 295.636 220.418 295.48 c 221.145 295.316 221.781 
295.23 222.324 295.23 c 222.906 295.23 223.395 295.331 223.793 295.526 
c 224.199 295.726 224.594 296.058 224.98 296.526 c 225.23 296.401 l 
224.699 295.632 224.066 295.081 223.34 294.745 c 222.609 294.401 
221.832 294.23 221.012 294.23 c 220.562 294.23 219.941 294.319 219.152 
294.495 c 217.953 294.757 217.113 294.886 216.637 294.886 c 216.449 
294.886 216.297 294.878 216.184 294.855 c 216.066 294.823 215.895 
294.761 215.668 294.667 c 215.496 294.87 l 218.699 297.401 l 217.707 
297.55 216.957 297.984 216.449 298.714 c 215.938 299.452 215.684 
300.237 215.684 301.073 c 215.684 302.206 216.027 303.386 216.715 
304.605 c 217.402 305.823 218.281 306.765 219.355 307.433 c 220.438 
308.109 221.496 308.448 222.527 308.448 c 223.297 308.448 223.953 
308.292 224.496 307.98 c 225.047 307.667 225.469 307.206 225.762 
306.605 c 226.062 306.011 226.215 305.401 226.215 304.776 c 226.215 
303.577 225.871 302.362 225.184 301.136 c 224.504 299.905 223.656 
298.972 222.637 298.339 c 221.625 297.702 220.551 297.378 219.418 
297.355 c h
222.34 307.948 m 221.816 307.948 221.309 307.816 220.809 307.558 c 
220.316 307.296 219.828 306.874 219.34 306.292 c 218.848 305.706 
218.406 304.941 218.012 303.995 c 217.543 302.827 217.309 301.722 
217.309 300.683 c 217.309 299.941 217.496 299.284 217.871 298.714 c 
218.254 298.151 218.84 297.87 219.621 297.87 c 220.09 297.87 220.551 
297.984 221.012 298.214 c 221.469 298.452 221.941 298.855 222.434 
299.417 c 223.059 300.136 223.578 301.046 223.996 302.151 c 224.422 
303.265 224.637 304.296 224.637 305.245 c 224.637 305.952 224.441 
306.577 224.059 307.12 c 223.684 307.671 223.109 307.948 222.34 307.948 
c h
222.34 307.948 m f
0.8 w
q 1 0 0 -1 0 308.440552 cm
267.641 221.98 m 267.641 250.941 l S Q
267.641 83.261 m 269.242 81.659 l 267.641 87.261 l 266.043 81.659 l h
267.641 83.261 m f*
0.4 w
q 0.000000000000000061 -1 -1 -0.000000000000000061 0 308.440552 cm
225.18 -267.641 m 226.781 -269.242 l 221.18 -267.641 l 226.781 -266.043 
l h
225.18 -267.641 m S Q
0.8 w
q 1 0 0 -1 0 308.440552 cm
322.039 249.539 m 266.242 249.539 l S Q
318.84 58.901 m 317.238 57.3 l 322.84 58.901 l 317.238 60.499 l h
318.84 58.901 m f*
0.4 w
q -1 -0.000000000000000122 -0.000000000000000122 1 0 308.440552 cm
-318.84 -249.539 m -317.238 -251.141 l -322.84 -249.539 l -317.238 
-247.941 l h
-318.84 -249.539 m S Q
308.805 71.355 m 311.43 67.292 l 311.898 66.573 312.281 66.112 312.586 
65.917 c 312.898 65.718 313.305 65.62 313.805 65.62 c 313.727 65.323 l 
309.211 65.323 l 309.273 65.62 l 309.637 65.651 309.891 65.734 310.039 
65.87 c 310.184 66.003 310.258 66.159 310.258 66.339 c 310.258 66.495 
310.23 66.644 310.18 66.792 c 310.137 66.894 309.984 67.151 309.727 
67.558 c 307.586 70.917 l 306.539 67.417 l 306.371 66.855 306.289 
66.472 306.289 66.276 c 306.289 66.077 306.359 65.925 306.508 65.823 c 
306.652 65.718 307.012 65.651 307.586 65.62 c 307.461 65.323 l 303.258 
65.323 l 303.367 65.62 l 303.773 65.628 304.047 65.667 304.195 65.73 c 
304.402 65.823 304.555 65.941 304.648 66.089 c 304.781 66.296 304.949 
66.737 305.148 67.417 c 307.023 73.808 l 307.156 74.296 307.227 74.691 
307.227 74.995 c 307.227 75.202 307.156 75.359 307.023 75.464 c 306.898 
75.577 306.641 75.636 306.258 75.636 c 306.102 75.636 l 306.195 75.917 
l 310.164 75.917 l 310.086 75.636 l 309.762 75.636 309.516 75.597 
309.352 75.526 c 309.133 75.409 308.969 75.265 308.867 75.089 c 308.762 
74.921 308.605 74.495 308.398 73.808 c 307.586 71.089 l 311.352 73.933 
l 311.852 74.308 312.18 74.605 312.336 74.823 c 312.43 74.956 312.477 
75.077 312.477 75.183 c 312.477 75.276 312.422 75.362 312.32 75.448 c 
312.227 75.542 312.078 75.605 311.883 75.636 c 311.961 75.917 l 315.352 
75.917 l 315.289 75.636 l 314.914 75.573 314.602 75.487 314.352 75.386 
c 314.102 75.28 313.84 75.14 313.57 74.964 c 313.496 74.909 312.992 
74.526 312.055 73.808 c h
308.805 71.355 m f
314.898 66.261 m 316.586 66.542 l 315.883 64.167 l 316.453 65.136 
316.977 65.816 317.445 66.214 c 317.703 66.433 317.918 66.542 318.086 
66.542 c 318.188 66.542 318.273 66.511 318.336 66.448 c 318.398 66.386 
318.43 66.292 318.43 66.167 c 318.43 65.948 318.371 65.745 318.258 
65.558 c 318.184 65.409 318.074 65.339 317.93 65.339 c 317.855 65.339 
317.789 65.359 317.727 65.401 c 317.672 65.452 317.641 65.53 317.633 
65.636 c 317.633 65.698 317.617 65.737 317.586 65.761 c 317.562 65.78 
317.531 65.792 317.492 65.792 c 317.438 65.792 317.387 65.78 317.336 
65.761 c 317.25 65.706 317.125 65.577 316.961 65.37 c 316.688 65.058 
316.391 64.644 316.07 64.136 c 315.934 63.917 315.82 63.671 315.727 
63.401 c 315.59 63.034 315.512 62.812 315.492 62.73 c 315.336 62.12 l 
314.586 62.12 l 315.492 65.151 l 315.594 65.503 315.648 65.753 315.648 
65.901 c 315.648 65.964 315.621 66.015 315.57 66.058 c 315.508 66.109 
315.422 66.136 315.32 66.136 c 315.246 66.136 315.121 66.12 314.945 
66.089 c h
314.898 66.261 m f
276.125 83.847 m 278.75 79.784 l 279.219 79.066 279.602 78.605 279.906 
78.409 c 280.219 78.21 280.625 78.112 281.125 78.112 c 281.047 77.816 l 
276.531 77.816 l 276.594 78.112 l 276.957 78.144 277.211 78.226 277.359 
78.362 c 277.504 78.495 277.578 78.651 277.578 78.831 c 277.578 78.987 
277.551 79.136 277.5 79.284 c 277.457 79.386 277.305 79.644 277.047 
80.05 c 274.906 83.409 l 273.859 79.909 l 273.691 79.347 273.609 78.964 
273.609 78.769 c 273.609 78.569 273.68 78.417 273.828 78.316 c 273.973 
78.21 274.332 78.144 274.906 78.112 c 274.781 77.816 l 270.578 77.816 l 
270.688 78.112 l 271.094 78.12 271.367 78.159 271.516 78.222 c 271.723 
78.316 271.875 78.433 271.969 78.581 c 272.102 78.788 272.27 79.23 
272.469 79.909 c 274.344 86.3 l 274.477 86.788 274.547 87.183 274.547 
87.487 c 274.547 87.694 274.477 87.851 274.344 87.956 c 274.219 88.069 
273.961 88.128 273.578 88.128 c 273.422 88.128 l 273.516 88.409 l 
277.484 88.409 l 277.406 88.128 l 277.082 88.128 276.836 88.089 276.672 
88.019 c 276.453 87.901 276.289 87.757 276.188 87.581 c 276.082 87.413 
275.926 86.987 275.719 86.3 c 274.906 83.581 l 278.672 86.425 l 279.172 
86.8 279.5 87.097 279.656 87.316 c 279.75 87.448 279.797 87.569 279.797 
87.675 c 279.797 87.769 279.742 87.855 279.641 87.941 c 279.547 88.034 
279.398 88.097 279.203 88.128 c 279.281 88.409 l 282.672 88.409 l 
282.609 88.128 l 282.234 88.066 281.922 87.98 281.672 87.878 c 281.422 
87.773 281.16 87.632 280.891 87.456 c 280.816 87.401 280.312 87.019 
279.375 86.3 c h
276.125 83.847 m f
282.547 78.913 m 285.641 78.913 l 285.641 78.804 l 282.266 75.288 l 
283.703 75.288 l 284.035 75.288 284.25 75.296 284.344 75.319 c 284.438 
75.351 284.52 75.405 284.594 75.491 c 284.664 75.573 284.75 75.726 
284.844 75.944 c 285.031 75.944 l 284.609 74.616 l 281.422 74.616 l 
281.422 74.757 l 284.797 78.273 l 283.391 78.273 l 283.098 78.273 
282.922 78.265 282.859 78.257 c 282.766 78.234 282.672 78.183 282.578 
78.101 c 282.492 78.015 282.406 77.874 282.312 77.679 c 282.125 77.679 
l h
282.547 78.913 m f
88.754 225.319 m 86.551 217.741 l 87.496 219.167 88.238 220.116 88.77 
220.585 c 89.301 221.054 89.809 221.288 90.301 221.288 c 90.551 221.288 
90.758 221.198 90.926 221.023 c 91.09 220.855 91.176 220.624 91.176 
220.335 c 91.176 219.991 91.102 219.573 90.957 219.085 c 90.004 215.819 
l 89.879 215.421 89.816 215.202 89.816 215.163 c 89.816 215.089 89.836 
215.026 89.879 214.976 c 89.93 214.933 89.98 214.913 90.035 214.913 c 
90.105 214.913 90.184 214.944 90.27 215.007 c 90.57 215.234 90.867 
215.554 91.16 215.96 c 91.395 215.819 l 91.215 215.538 90.973 215.23 
90.66 214.898 c 90.348 214.573 90.074 214.343 89.848 214.21 c 89.617 
214.085 89.414 214.023 89.238 214.023 c 89.051 214.023 88.895 214.085 
88.77 214.21 c 88.645 214.335 88.582 214.491 88.582 214.679 c 88.582 
214.905 88.676 215.335 88.863 215.96 c 89.754 219.085 l 89.867 219.48 
89.926 219.788 89.926 220.007 c 89.926 220.109 89.895 220.194 89.832 
220.257 c 89.77 220.319 89.684 220.351 89.582 220.351 c 89.426 220.351 
89.254 220.292 89.066 220.179 c 88.711 219.96 88.301 219.554 87.832 
218.96 c 87.707 218.804 87.289 218.151 86.582 217.007 c 86.363 216.64 
86.184 216.245 86.051 215.819 c 85.551 214.21 l 84.379 214.21 l 86.941 
223.148 l 87.223 224.116 l 87.223 224.249 87.164 224.37 87.051 224.476 
c 86.934 224.577 86.801 224.632 86.645 224.632 c 86.551 224.632 86.402 
224.616 86.207 224.585 c 86.051 224.569 l 86.051 224.866 l h
88.754 225.319 m f
95.504 217.776 m 95.918 217.776 96.27 217.597 96.551 217.245 c 96.84 
216.901 96.988 216.347 96.988 215.589 c 96.988 214.952 96.879 214.296 
96.66 213.62 c 96.449 212.952 96.152 212.374 95.77 211.886 c 95.465 
211.487 95.148 211.206 94.816 211.042 c 94.617 210.941 94.387 210.886 
94.129 210.886 c 93.711 210.886 93.355 211.058 93.066 211.401 c 92.785 
211.753 92.645 212.312 92.645 213.073 c 92.645 213.812 92.789 214.562 
93.082 215.323 c 93.414 216.198 93.84 216.862 94.363 217.323 c 94.707 
217.624 95.086 217.776 95.504 217.776 c h
95.52 217.511 m 95.32 217.511 95.121 217.437 94.926 217.292 c 94.738 
217.144 94.539 216.839 94.332 216.37 c 94.133 215.901 93.934 215.296 
93.738 214.558 c 93.496 213.589 93.379 212.765 93.379 212.089 c 93.379 
211.745 93.449 211.487 93.598 211.323 c 93.742 211.155 93.918 211.073 
94.129 211.073 c 94.324 211.073 94.496 211.14 94.645 211.276 c 95.02 
211.62 95.336 212.218 95.598 213.073 c 96.035 214.456 96.254 215.589 
96.254 216.464 c 96.254 216.816 96.18 217.077 96.035 217.245 c 95.887 
217.421 95.715 217.511 95.52 217.511 c h
95.52 217.511 m f
123.914 204.511 m 123.43 202.105 l 123.148 202.105 l 123.117 202.8 
122.965 203.308 122.695 203.62 c 122.422 203.941 122.09 204.105 121.695 
204.105 c 121.371 204.105 121.109 204.015 120.914 203.839 c 120.727 
203.659 120.633 203.448 120.633 203.198 c 120.633 203.03 120.668 202.87 
120.742 202.714 c 120.824 202.558 120.992 202.339 121.242 202.058 c 
121.918 201.316 122.355 200.761 122.555 200.386 c 122.75 200.011 
122.852 199.655 122.852 199.323 c 122.852 198.78 122.625 198.296 122.18 
197.87 c 121.73 197.452 121.164 197.245 120.477 197.245 c 120.102 
197.245 119.668 197.335 119.18 197.511 c 119 197.573 118.867 197.605 
118.773 197.605 c 118.543 197.605 118.367 197.484 118.242 197.245 c 
117.945 197.245 l 118.43 199.776 l 118.727 199.776 l 118.758 198.984 
118.918 198.421 119.211 198.089 c 119.512 197.765 119.918 197.605 
120.43 197.605 c 120.824 197.605 121.137 197.714 121.367 197.933 c 
121.605 198.159 121.727 198.437 121.727 198.761 c 121.727 198.968 
121.684 199.159 121.602 199.339 c 121.453 199.651 121.148 200.081 
120.68 200.636 c 120.211 201.187 119.906 201.597 119.773 201.87 c 
119.648 202.151 119.586 202.425 119.586 202.698 c 119.586 203.206 
119.766 203.636 120.133 203.98 c 120.496 204.331 120.969 204.511 
121.555 204.511 c 121.719 204.511 121.871 204.495 122.008 204.464 c 
122.078 204.452 122.246 204.394 122.508 204.292 c 122.777 204.187 
122.961 204.136 123.055 204.136 c 123.273 204.136 123.461 204.261 
123.617 204.511 c h
123.914 204.511 m f
0.8 w
q 1 0 0 -1 0 308.440552 cm
120.93 79.797 m 120.93 98.215 l S Q
120.93 213.425 m 119.332 215.026 l 120.93 209.425 l 122.531 215.026 l h
120.93 213.425 m f*
0.4 w
q -0.000000000000000184 1 1 0.000000000000000184 0 308.440552 cm
-95.016 120.93 m -93.414 119.332 l -99.016 120.93 l -93.414 122.531 l h
-95.016 120.93 m S Q
0.8 w
q 1 0 0 -1 0 308.440552 cm
120.93 135.332 m 120.93 116.914 l S Q
120.93 188.323 m 122.531 186.726 l 120.93 192.323 l 119.332 186.726 l h
120.93 188.323 m f*
0.4 w
q 0.000000000000000061 -1 -1 -0.000000000000000061 0 308.440552 cm
120.117 -120.93 m 121.715 -122.531 l 116.117 -120.93 l 121.715 -119.332 
l h
120.117 -120.93 m S Q
0.8 w
q 1 0 0 -1 0 308.440552 cm
196.961 215.301 m 178.543 215.301 l S Q
181.742 93.14 m 183.34 94.741 l 177.742 93.14 l 183.34 91.538 l h
181.742 93.14 m f*
0.4 w
q 1 0 0 -1 0 308.440552 cm
181.742 215.301 m 183.34 213.699 l 177.742 215.301 l 183.34 216.902 l h
181.742 215.301 m S Q
0.8 w
q 1 0 0 -1 0 308.440552 cm
141.422 215.301 m 159.84 215.301 l S Q
156.641 93.14 m 155.043 91.538 l 160.641 93.14 l 155.043 94.741 l h
156.641 93.14 m f*
0.4 w
q -1 -0.000000000000000122 -0.000000000000000122 1 0 308.440552 cm
-156.641 -215.301 m -155.043 -216.902 l -160.641 -215.301 l -155.043 
-213.699 l h
-156.641 -215.301 m S Q
201.719 89.394 m 196.438 89.394 l 196.438 89.691 l 199.125 92.042 
200.898 93.886 201.766 95.222 c 202.172 95.847 202.375 96.495 202.375 
97.175 c 202.375 97.714 202.207 98.159 201.875 98.503 c 201.539 98.847 
201.109 99.019 200.578 99.019 c 199.836 99.019 199.234 98.663 198.766 
97.956 c 198.484 98.081 l 198.754 98.757 199.145 99.276 199.656 99.644 
c 200.164 100.019 200.719 100.206 201.312 100.206 c 201.977 100.206 
202.539 99.976 203 99.519 c 203.457 99.058 203.688 98.503 203.688 
97.847 c 203.688 97.386 203.609 96.96 203.453 96.566 c 203.203 95.96 
202.738 95.276 202.062 94.519 c 201.039 93.362 199.68 92.034 197.984 
90.534 c 200.641 90.534 l 201.066 90.534 201.414 90.62 201.688 90.8 c 
201.969 90.976 202.164 91.21 202.281 91.503 c 202.594 91.503 l h
205.031 96.034 m 207.719 96.472 l 206.594 92.675 l 207.508 94.226 
208.336 95.316 209.078 95.941 c 209.504 96.292 209.848 96.472 210.109 
96.472 c 210.285 96.472 210.422 96.417 210.516 96.316 c 210.617 96.21 
210.672 96.066 210.672 95.878 c 210.672 95.534 210.582 95.206 210.406 
94.894 c 210.281 94.651 210.098 94.534 209.859 94.534 c 209.742 94.534 
209.641 94.569 209.547 94.644 c 209.461 94.726 209.41 94.851 209.391 
95.019 c 209.379 95.112 209.359 95.175 209.328 95.206 c 209.285 95.245 
209.234 95.269 209.172 95.269 c 209.086 95.269 209.004 95.245 208.922 
95.206 c 208.785 95.132 208.582 94.929 208.312 94.597 c 207.875 94.085 
207.406 93.425 206.906 92.612 c 206.688 92.269 206.5 91.882 206.344 
91.456 c 206.125 90.862 206 90.503 205.969 90.378 c 205.719 89.394 l 
204.516 89.394 l 205.969 94.253 l 206.133 94.816 206.219 95.214 206.219 
95.456 c 206.219 95.55 206.176 95.628 206.094 95.691 c 205.988 95.773 
205.852 95.816 205.688 95.816 c 205.57 95.816 205.367 95.788 205.078 
95.737 c h
205.031 96.034 m f
214.594 90.616 m 214.938 86.944 l 215.5 87.609 215.953 88.234 216.297 
88.819 c 216.492 89.163 216.594 89.413 216.594 89.569 c 216.594 89.64 
216.578 89.702 216.547 89.757 c 216.523 89.788 216.469 89.827 216.375 
89.882 c 216.289 89.944 216.227 89.999 216.188 90.054 c 216.156 90.116 
216.141 90.183 216.141 90.257 c 216.141 90.351 216.176 90.433 216.25 
90.507 c 216.332 90.577 216.43 90.616 216.547 90.616 c 216.68 90.616 
216.789 90.562 216.875 90.46 c 216.969 90.366 217.016 90.234 217.016 
90.069 c 217.016 89.901 216.992 89.745 216.953 89.601 c 216.848 89.319 
216.656 88.952 216.375 88.507 c 216.031 87.976 215.676 87.48 215.312 
87.023 c 214.945 86.573 214.676 86.257 214.5 86.069 c 214.312 86.069 l 
214 89.46 l 211.984 86.069 l 211.766 86.069 l 211.742 87.464 211.672 
88.562 211.547 89.366 c 211.504 89.698 211.426 89.917 211.312 90.023 c 
211.227 90.105 211.102 90.148 210.938 90.148 c 210.844 90.148 210.723 
90.136 210.578 90.116 c 210.578 90.288 l 211.984 90.616 l 212.172 
90.073 212.297 89.241 212.359 88.116 c 212.379 87.687 212.395 87.417 
212.406 87.304 c 214.422 90.616 l h
214.594 90.616 m f
0.790699 w
q 1 0.15383 0.15383 -1 0 308.440552 cm
237.857 140.949 m 243.83 140.946 l 240.962 144.376 l h
237.857 140.949 m S Q
q 1 0.15383 0.15383 -1 0 308.440552 cm
237.542 147.44 m 244.147 147.44 l S Q
q 1 0.15383 0.15383 -1 0 308.440552 cm
238.482 149.299 m 243.205 149.299 l S Q
q 1 0.15383 0.15383 -1 0 308.440552 cm
239.728 151.159 m 241.962 151.159 l S Q
Q Q
showpage
%%Trailer
count op_count sub {pop} repeat
countdictstack dict_count sub {end} repeat
cairo_eps_state restore
%%EOF
