"well","r","rD","d","b","d+b/2","z","Sy","β","kappa","T","Kr","Kz","S","Ss (S/b)","<KD>rD^2"
,"feet",,"feet","feet","feet","feet",,,,"feet/day?",,,,,
,"radius","r/b","depth to top of screen","length of screen","depth to midpoint of screen","elevation of midpoint of screen","specific yield","linearization parameter","anisotropy ratio","transmissivity","radial K","vertical K","storativity","specific storage","mean anisotropy ratio*rD^2"
"F505-059",19.50,0.11,30.60,9.00,35.10,137.70,0.1192,0.005045,0.3962,45.5,0.2633,0.1043,0.00565,3.27E-05,0.0036
"F505-032",23.90,0.14,10.70,2.00,11.70,161.10,0.0766,0.003366,0.1760,47.96,0.2775,0.0488,0.00800,4.63E-05,0.0054
"F504-032",46.60,0.27,9.60,2.00,10.60,162.20,0.0931,0.012240,0.1683,49.71,0.2877,0.0484,0.00859,4.97E-05,0.0204
"F504-060",49.80,0.29,30.00,9.00,34.50,138.30,0.1650,0.032200,0.3877,43.56,0.2521,0.0977,0.00514,2.97E-05,0.0233
"F504-080",53.10,0.31,75.50,2.00,76.50,96.30,0.1724,0.041290,0.4373,43.57,0.2521,0.1103,0.00563,3.26E-05,0.0264
"F377-037",85.10,0.49,13.30,2.00,14.30,158.50,0.1459,0.071140,0.2933,48.77,0.2822,0.0828,0.00500,2.89E-05,0.0679
"F383-061",92.90,0.54,39.90,2.00,40.90,131.90,0.1907,0.103400,0.3577,43.24,0.2502,0.0895,0.00793,4.59E-05,0.0809
"F383-032",93.00,0.54,12.10,2.00,13.10,159.70,0.1772,0.053230,0.1838,52.39,0.3032,0.0557,0.00538,3.12E-05,0.0811
"F383-082",94.80,0.55,61.80,2.00,62.80,110.00,0.1759,0.086140,0.2862,42.79,0.2476,0.0709,0.01035,5.99E-05,0.0843
"F383-129",96.70,0.56,107.80,2.00,108.80,64.00,0.1645,0.110100,0.3516,40.42,0.2339,0.0822,0.00230,1.33E-05,0.0877
"F384-033",137.30,0.79,15.80,2.00,16.80,156.00,0.1873,0.176800,0.2800,45.39,0.2627,0.0736,0.00272,1.57E-05,0.1768
"F381-056",159.80,0.92,20.00,2.00,21.00,151.80,0.1489,0.151800,0.1775,52.99,0.3067,0.0544,0.00410,2.37E-05,0.2395
"F385-032",224.60,1.30,10.00,2.00,11.00,161.80,0.1508,0.423200,0.2505,56.86,0.3291,0.0824,0.00250,1.45E-05,0.4730
"F347-031",225.70,1.31,14.80,2.00,15.80,157.00,0.1722,0.464500,0.2723,48.12,0.2785,0.0758,0.00284,1.64E-05,0.4777
"F376-037",227.60,1.32,13.20,2.00,14.20,158.60,0.1532,0.470000,0.2709,65.81,0.3808,0.1032,0.00626,3.62E-05,0.4858
"F434-060",38.60,0.223,2.00,39.00,21.50,151.30,0.1263,0.020180,0.4044,46.17,0.2672,0.1081,0.00242,1.40E-05,0.0140
"F476-061",65.60,0.380,2.20,39.00,21.70,151.10,0.1432,0.062020,0.4303,45.37,0.2626,0.1130,0.00238,1.38E-05,0.0404
"F450-061",66.30,0.384,1.70,39.00,21.20,151.60,0.1514,0.057700,0.3920,45.95,0.2659,0.1042,0.00246,1.43E-05,0.0412
"F478-061",101.30,0.586,2.20,39.00,21.70,151.10,0.1596,0.117500,0.3419,48.51,0.2807,0.0960,0.00245,1.42E-05,0.0962
