%!PS-Adobe-3.0 EPSF-3.0
%%Title: cape_cod_F450-061.eps
%%Creator: matplotlib version 1.0.1, http://matplotlib.sourceforge.net/
%%CreationDate: Sun Mar 25 16:36:43 2012
%%Orientation: portrait
%%BoundingBox: 18 180 594 612
%%EndComments
%%BeginProlog
/mpldict 8 dict def
mpldict begin
/m { moveto } bind def
/l { lineto } bind def
/r { rlineto } bind def
/c { curveto } bind def
/cl { closepath } bind def
/box {
m
1 index 0 r
0 exch r
neg 0 r
cl
} bind def
/clipbox {
box
clip
newpath
} bind def
%!PS-Adobe-3.0 Resource-Font
%%Title: Bitstream Vera Sans
%%Copyright: Copyright (c) 2003 by Bitstream, Inc. All Rights Reserved.
%%Creator: Converted from TrueType to type 3 by PPR
25 dict begin
/_d{bind def}bind def
/_m{moveto}_d
/_l{lineto}_d
/_cl{closepath eofill}_d
/_c{curveto}_d
/_sc{7 -1 roll{setcachedevice}{pop pop pop pop pop pop}ifelse}_d
/_e{exec}_d
/FontName /BitstreamVeraSans-Roman def
/PaintType 0 def
/FontMatrix[.001 0 0 .001 0 0]def
/FontBBox[-182 -235 1287 928]def
/FontType 3 def
/Encoding [ /space /parenleft /parenright /hyphen /zero /one /two /three /a /d /e /f /i /m /n /o /r /t /w ] def
/FontInfo 10 dict dup begin
/FamilyName (Bitstream Vera Sans) def
/FullName (Bitstream Vera Sans) def
/Notice (Copyright (c) 2003 by Bitstream, Inc. All Rights Reserved. Bitstream Vera is a trademark of Bitstream, Inc.) def
/Weight (Roman) def
/Version (Release 1.10) def
/ItalicAngle 0.0 def
/isFixedPitch false def
/UnderlinePosition -213 def
/UnderlineThickness 143 def
end readonly def
/CharStrings 19 dict dup begin
/space{318 0 0 0 0 0 _sc
}_d
/parenleft{390 0 86 -131 310 759 _sc
310 759 _m
266 683 234 609 213 536 _c
191 463 181 389 181 314 _c
181 238 191 164 213 91 _c
234 17 266 -56 310 -131 _c
232 -131 _l
183 -54 146 20 122 94 _c
98 168 86 241 86 314 _c
86 386 98 459 122 533 _c
146 607 182 682 232 759 _c
310 759 _l
_cl}_d
/parenright{390 0 80 -131 304 759 _sc
80 759 _m
158 759 _l
206 682 243 607 267 533 _c
291 459 304 386 304 314 _c
304 241 291 168 267 94 _c
243 20 206 -54 158 -131 _c
80 -131 _l
123 -56 155 17 177 91 _c
198 164 209 238 209 314 _c
209 389 198 463 177 536 _c
155 609 123 683 80 759 _c
_cl}_d
/hyphen{361 0 49 234 312 314 _sc
49 314 _m
312 314 _l
312 234 _l
49 234 _l
49 314 _l
_cl}_d
/zero{636 0 66 -13 570 742 _sc
318 664 _m
267 664 229 639 203 589 _c
177 539 165 464 165 364 _c
165 264 177 189 203 139 _c
229 89 267 64 318 64 _c
369 64 407 89 433 139 _c
458 189 471 264 471 364 _c
471 464 458 539 433 589 _c
407 639 369 664 318 664 _c
318 742 _m
399 742 461 709 505 645 _c
548 580 570 486 570 364 _c
570 241 548 147 505 83 _c
461 19 399 -13 318 -13 _c
236 -13 173 19 130 83 _c
87 147 66 241 66 364 _c
66 486 87 580 130 645 _c
173 709 236 742 318 742 _c
_cl}_d
/one{636 0 110 0 544 729 _sc
124 83 _m
285 83 _l
285 639 _l
110 604 _l
110 694 _l
284 729 _l
383 729 _l
383 83 _l
544 83 _l
544 0 _l
124 0 _l
124 83 _l
_cl}_d
/two{{636 0 73 0 536 742 _sc
192 83 _m
536 83 _l
536 0 _l
73 0 _l
73 83 _l
110 121 161 173 226 239 _c
290 304 331 346 348 365 _c
380 400 402 430 414 455 _c
426 479 433 504 433 528 _c
433 566 419 598 392 622 _c
365 646 330 659 286 659 _c
255 659 222 653 188 643 _c
154 632 117 616 78 594 _c
78 694 _l
118 710 155 722 189 730 _c
223 738 255 742 284 742 _c
359 742 419 723 464 685 _c
509 647 532 597 532 534 _c
532 504 526 475 515 449 _c
504 422 484 390 454 354 _c
446 344 420 317 376 272 _c
332 227 271 164 192 83 _c
_cl}_e}_d
/three{{636 0 76 -13 556 742 _sc
406 393 _m
453 383 490 362 516 330 _c
542 298 556 258 556 212 _c
556 140 531 84 482 45 _c
432 6 362 -13 271 -13 _c
240 -13 208 -10 176 -4 _c
144 1 110 10 76 22 _c
76 117 _l
103 101 133 89 166 81 _c
198 73 232 69 268 69 _c
330 69 377 81 409 105 _c
441 129 458 165 458 212 _c
458 254 443 288 413 312 _c
383 336 341 349 287 349 _c
202 349 _l
202 430 _l
291 430 _l
339 430 376 439 402 459 _c
428 478 441 506 441 543 _c
441 580 427 609 401 629 _c
374 649 336 659 287 659 _c
260 659 231 656 200 650 _c
169 644 135 635 98 623 _c
98 711 _l
135 721 170 729 203 734 _c
235 739 266 742 296 742 _c
}_e{370 742 429 725 473 691 _c
517 657 539 611 539 553 _c
539 513 527 479 504 451 _c
481 423 448 403 406 393 _c
_cl}_e}_d
/a{{613 0 60 -13 522 560 _sc
343 275 _m
270 275 220 266 192 250 _c
164 233 150 205 150 165 _c
150 133 160 107 181 89 _c
202 70 231 61 267 61 _c
317 61 357 78 387 114 _c
417 149 432 196 432 255 _c
432 275 _l
343 275 _l
522 312 _m
522 0 _l
432 0 _l
432 83 _l
411 49 385 25 355 10 _c
325 -5 287 -13 243 -13 _c
187 -13 142 2 109 33 _c
76 64 60 106 60 159 _c
60 220 80 266 122 298 _c
163 329 224 345 306 345 _c
432 345 _l
432 354 _l
432 395 418 427 391 450 _c
364 472 326 484 277 484 _c
245 484 215 480 185 472 _c
155 464 127 453 100 439 _c
100 522 _l
}_e{132 534 164 544 195 550 _c
226 556 256 560 286 560 _c
365 560 424 539 463 498 _c
502 457 522 395 522 312 _c
_cl}_e}_d
/d{{635 0 55 -13 544 760 _sc
454 464 _m
454 760 _l
544 760 _l
544 0 _l
454 0 _l
454 82 _l
435 49 411 25 382 10 _c
353 -5 319 -13 279 -13 _c
213 -13 159 13 117 65 _c
75 117 55 187 55 273 _c
55 359 75 428 117 481 _c
159 533 213 560 279 560 _c
319 560 353 552 382 536 _c
411 520 435 496 454 464 _c
148 273 _m
148 207 161 155 188 117 _c
215 79 253 61 301 61 _c
348 61 385 79 413 117 _c
440 155 454 207 454 273 _c
454 339 440 390 413 428 _c
385 466 348 485 301 485 _c
253 485 215 466 188 428 _c
161 390 148 339 148 273 _c
_cl}_e}_d
/e{{615 0 55 -13 562 560 _sc
562 296 _m
562 252 _l
149 252 _l
153 190 171 142 205 110 _c
238 78 284 62 344 62 _c
378 62 412 66 444 74 _c
476 82 509 95 541 113 _c
541 28 _l
509 14 476 3 442 -3 _c
408 -9 373 -13 339 -13 _c
251 -13 182 12 131 62 _c
80 112 55 181 55 268 _c
55 357 79 428 127 481 _c
175 533 241 560 323 560 _c
397 560 455 536 498 489 _c
540 441 562 377 562 296 _c
472 322 _m
471 371 457 410 431 440 _c
404 469 368 484 324 484 _c
274 484 234 469 204 441 _c
174 413 156 373 152 322 _c
472 322 _l
_cl}_e}_d
/f{352 0 23 0 371 760 _sc
371 760 _m
371 685 _l
285 685 _l
253 685 230 678 218 665 _c
205 652 199 629 199 595 _c
199 547 _l
347 547 _l
347 477 _l
199 477 _l
199 0 _l
109 0 _l
109 477 _l
23 477 _l
23 547 _l
109 547 _l
109 585 _l
109 645 123 690 151 718 _c
179 746 224 760 286 760 _c
371 760 _l
_cl}_d
/i{278 0 94 0 184 760 _sc
94 547 _m
184 547 _l
184 0 _l
94 0 _l
94 547 _l
94 760 _m
184 760 _l
184 646 _l
94 646 _l
94 760 _l
_cl}_d
/m{{974 0 91 0 889 560 _sc
520 442 _m
542 482 569 511 600 531 _c
631 550 668 560 711 560 _c
767 560 811 540 842 500 _c
873 460 889 403 889 330 _c
889 0 _l
799 0 _l
799 327 _l
799 379 789 418 771 444 _c
752 469 724 482 686 482 _c
639 482 602 466 575 435 _c
548 404 535 362 535 309 _c
535 0 _l
445 0 _l
445 327 _l
445 379 435 418 417 444 _c
398 469 369 482 331 482 _c
285 482 248 466 221 435 _c
194 404 181 362 181 309 _c
181 0 _l
91 0 _l
91 547 _l
181 547 _l
181 462 _l
201 495 226 520 255 536 _c
283 552 317 560 357 560 _c
397 560 430 550 458 530 _c
486 510 506 480 520 442 _c
}_e{_cl}_e}_d
/n{634 0 91 0 549 560 _sc
549 330 _m
549 0 _l
459 0 _l
459 327 _l
459 379 448 417 428 443 _c
408 469 378 482 338 482 _c
289 482 251 466 223 435 _c
195 404 181 362 181 309 _c
181 0 _l
91 0 _l
91 547 _l
181 547 _l
181 462 _l
202 494 227 519 257 535 _c
286 551 320 560 358 560 _c
420 560 468 540 500 501 _c
532 462 549 405 549 330 _c
_cl}_d
/o{612 0 55 -13 557 560 _sc
306 484 _m
258 484 220 465 192 427 _c
164 389 150 338 150 273 _c
150 207 163 156 191 118 _c
219 80 257 62 306 62 _c
354 62 392 80 420 118 _c
448 156 462 207 462 273 _c
462 337 448 389 420 427 _c
392 465 354 484 306 484 _c
306 560 _m
384 560 445 534 490 484 _c
534 433 557 363 557 273 _c
557 183 534 113 490 63 _c
445 12 384 -13 306 -13 _c
227 -13 165 12 121 63 _c
77 113 55 183 55 273 _c
55 363 77 433 121 484 _c
165 534 227 560 306 560 _c
_cl}_d
/r{411 0 91 0 411 560 _sc
411 463 _m
401 469 390 473 378 476 _c
366 478 353 480 339 480 _c
288 480 249 463 222 430 _c
194 397 181 350 181 288 _c
181 0 _l
91 0 _l
91 547 _l
181 547 _l
181 462 _l
199 495 224 520 254 536 _c
284 552 321 560 365 560 _c
371 560 378 559 386 559 _c
393 558 401 557 411 555 _c
411 463 _l
_cl}_d
/t{392 0 27 0 368 702 _sc
183 702 _m
183 547 _l
368 547 _l
368 477 _l
183 477 _l
183 180 _l
183 135 189 106 201 94 _c
213 81 238 75 276 75 _c
368 75 _l
368 0 _l
276 0 _l
206 0 158 13 132 39 _c
106 65 93 112 93 180 _c
93 477 _l
27 477 _l
27 547 _l
93 547 _l
93 702 _l
183 702 _l
_cl}_d
/w{818 0 42 0 776 547 _sc
42 547 _m
132 547 _l
244 120 _l
356 547 _l
462 547 _l
574 120 _l
686 547 _l
776 547 _l
633 0 _l
527 0 _l
409 448 _l
291 0 _l
185 0 _l
42 547 _l
_cl}_d
end readonly def

/BuildGlyph
 {exch begin
 CharStrings exch
 2 copy known not{pop /.notdef}if
 true 3 1 roll get exec
 end}_d

/BuildChar {
 1 index /Encoding get exch get
 1 index /BuildGlyph get exec
}_d

FontName currentdict end definefont pop
end
%%EndProlog
mpldict begin
18 180 translate
576 432 0 0 clipbox
1.000 setlinewidth
1 setlinejoin
2 setlinecap
[] 0 setdash
1.000 setgray
gsave
0 0 m
576 0 l
576 432 l
0 432 l
cl
gsave
fill
grestore
stroke
grestore
gsave
72 43.2 m
518.4 43.2 l
518.4 388.8 l
72 388.8 l
cl
fill
grestore
0.500 setlinewidth
0 setlinecap
0.000 setgray
gsave
446.4 345.6 72 43.2 clipbox
/o {
gsave
newpath
translate
0 -1.5 m
0.397805 -1.5 0.77937 -1.34195 1.06066 -1.06066 c
1.34195 -0.77937 1.5 -0.397805 1.5 0 c
1.5 0.397805 1.34195 0.77937 1.06066 1.06066 c
0.77937 1.34195 0.397805 1.5 0 1.5 c
-0.397805 1.5 -0.77937 1.34195 -1.06066 1.06066 c
-1.34195 0.77937 -1.5 0.397805 -1.5 0 c
-1.5 -0.397805 -1.34195 -0.77937 -1.06066 -1.06066 c
-0.77937 -1.34195 -0.397805 -1.5 0 -1.5 c
cl
gsave
0.000 setgray
fill
grestore
stroke
grestore
} bind def
224.708 203.866 o
282.062 236.174 o
301.985 250.371 o
316.922 258.504 o
341.652 272.475 o
356.809 284.199 o
374.121 291.904 o
391.797 303.176 o
405.542 314.745 o
418.677 319.909 o
430.618 323.159 o
447.287 330.704 o
459.861 333.517 o
474.796 337.543 o
487.715 340.109 o
500.304 343.797 o
grestore
1.000 setlinewidth
[6 6] 0 setdash
1.000 0.000 0.000 setrgbcolor
gsave
446.4 345.6 72 43.2 clipbox
26.6759 -617.73 m
77.654 -1 m
87.9075 58.8353 l
103.215 124.234 l
118.523 172.831 l
133.831 209.335 l
149.139 236.94 l
164.447 257.907 l
179.755 273.897 l
195.063 286.185 l
210.371 295.827 l
225.679 303.739 l
240.987 310.649 l
256.295 316.985 l
271.602 322.885 l
286.91 328.401 l
302.218 333.632 l
317.526 338.564 l
332.834 343.055 l
348.142 347.097 l
363.45 350.92 l
378.758 354.728 l
394.066 358.466 l
409.374 361.91 l
424.682 365.025 l
439.989 367.986 l
455.297 371.031 l
470.605 374.306 l
485.913 377.612 l
501.221 380.581 l
516.529 383.095 l
531.837 385.232 l
stroke
grestore
[1 3] 0 setdash
0.000 0.500 0.000 setrgbcolor
gsave
446.4 345.6 72 43.2 clipbox
179.755 -470.818 m
224.013 -1 m
225.679 10.7347 l
240.987 88.8862 l
256.295 146.486 l
271.602 189.508 l
286.91 221.928 l
302.218 246.495 l
317.526 265.184 l
332.834 279.472 l
348.142 290.523 l
363.45 299.331 l
378.758 306.746 l
394.066 313.381 l
409.374 319.528 l
424.682 325.255 l
439.989 330.64 l
455.297 335.758 l
470.605 340.521 l
485.913 344.806 l
501.221 348.722 l
516.529 352.526 l
531.837 356.328 l
stroke
grestore
2 setlinecap
[] 0 setdash
0.000 setgray
gsave
446.4 345.6 72 43.2 clipbox
26.6759 -622.439 m
80.9501 -1 m
87.9075 36.4854 l
103.215 93.4313 l
118.523 132.2 l
133.831 158.026 l
149.139 174.808 l
164.447 185.486 l
179.755 192.262 l
195.063 196.789 l
210.371 200.291 l
225.679 203.52 l
240.987 206.877 l
256.295 210.729 l
271.602 215.543 l
286.91 221.846 l
302.218 230.058 l
317.526 240.345 l
332.834 252.503 l
348.142 265.903 l
363.45 279.575 l
378.758 292.487 l
394.066 303.901 l
409.374 313.562 l
424.682 321.627 l
439.989 328.455 l
455.297 334.391 l
470.605 339.645 l
485.913 344.292 l
501.221 348.448 l
516.529 352.368 l
531.837 356.217 l
stroke
grestore
0.500 setlinewidth
0 setlinecap
gsave
/o {
gsave
newpath
translate
0 0 m
0 4 l
stroke
grestore
} bind def
98.1128 43.2 o
grestore
gsave
/o {
gsave
newpath
translate
0 0 m
0 -4 l
stroke
grestore
} bind def
98.1128 388.8 o
grestore
gsave
84.612796 25.200000 translate
0.000000 rotate
/BitstreamVeraSans-Roman findfont
12.0 scalefont
setfont
0.000000 1.575000 moveto
/one glyphshow

7.634766 1.575000 moveto
/zero glyphshow

/BitstreamVeraSans-Roman findfont
8.4 scalefont
setfont
15.269531 7.875000 moveto
/hyphen glyphshow

18.300586 7.875000 moveto
/one glyphshow


grestore
gsave
/o {
gsave
newpath
translate
0 0 m
0 4 l
stroke
grestore
} bind def
184.858 43.2 o
grestore
gsave
/o {
gsave
newpath
translate
0 0 m
0 -4 l
stroke
grestore
} bind def
184.858 388.8 o
grestore
gsave
172.857625 25.200000 translate
0.000000 rotate
/BitstreamVeraSans-Roman findfont
12.0 scalefont
setfont
0.000000 1.465625 moveto
/one glyphshow

7.634766 1.465625 moveto
/zero glyphshow

/BitstreamVeraSans-Roman findfont
8.4 scalefont
setfont
15.269531 7.765625 moveto
/zero glyphshow


grestore
gsave
/o {
gsave
newpath
translate
0 0 m
0 4 l
stroke
grestore
} bind def
271.602 43.2 o
grestore
gsave
/o {
gsave
newpath
translate
0 0 m
0 -4 l
stroke
grestore
} bind def
271.602 388.8 o
grestore
gsave
259.602455 25.200000 translate
0.000000 rotate
/BitstreamVeraSans-Roman findfont
12.0 scalefont
setfont
0.000000 1.575000 moveto
/one glyphshow

7.634766 1.575000 moveto
/zero glyphshow

/BitstreamVeraSans-Roman findfont
8.4 scalefont
setfont
15.269531 7.875000 moveto
/one glyphshow


grestore
gsave
/o {
gsave
newpath
translate
0 0 m
0 4 l
stroke
grestore
} bind def
358.347 43.2 o
grestore
gsave
/o {
gsave
newpath
translate
0 0 m
0 -4 l
stroke
grestore
} bind def
358.347 388.8 o
grestore
gsave
346.347285 25.200000 translate
0.000000 rotate
/BitstreamVeraSans-Roman findfont
12.0 scalefont
setfont
0.000000 1.465625 moveto
/one glyphshow

7.634766 1.465625 moveto
/zero glyphshow

/BitstreamVeraSans-Roman findfont
8.4 scalefont
setfont
15.269531 7.765625 moveto
/two glyphshow


grestore
gsave
/o {
gsave
newpath
translate
0 0 m
0 4 l
stroke
grestore
} bind def
445.092 43.2 o
grestore
gsave
/o {
gsave
newpath
translate
0 0 m
0 -4 l
stroke
grestore
} bind def
445.092 388.8 o
grestore
gsave
433.092114 25.200000 translate
0.000000 rotate
/BitstreamVeraSans-Roman findfont
12.0 scalefont
setfont
0.000000 1.465625 moveto
/one glyphshow

7.634766 1.465625 moveto
/zero glyphshow

/BitstreamVeraSans-Roman findfont
8.4 scalefont
setfont
15.269531 7.765625 moveto
/three glyphshow


grestore
gsave
/o {
gsave
newpath
translate
0 0 m
0 2 l
stroke
grestore
} bind def
72 43.2 o
grestore
gsave
/o {
gsave
newpath
translate
0 0 m
0 -2 l
stroke
grestore
} bind def
72 388.8 o
grestore
gsave
/o {
gsave
newpath
translate
0 0 m
0 2 l
stroke
grestore
} bind def
78.8686 43.2 o
grestore
gsave
/o {
gsave
newpath
translate
0 0 m
0 -2 l
stroke
grestore
} bind def
78.8686 388.8 o
grestore
gsave
/o {
gsave
newpath
translate
0 0 m
0 2 l
stroke
grestore
} bind def
84.6759 43.2 o
grestore
gsave
/o {
gsave
newpath
translate
0 0 m
0 -2 l
stroke
grestore
} bind def
84.6759 388.8 o
grestore
gsave
/o {
gsave
newpath
translate
0 0 m
0 2 l
stroke
grestore
} bind def
89.7064 43.2 o
grestore
gsave
/o {
gsave
newpath
translate
0 0 m
0 -2 l
stroke
grestore
} bind def
89.7064 388.8 o
grestore
gsave
/o {
gsave
newpath
translate
0 0 m
0 2 l
stroke
grestore
} bind def
94.1436 43.2 o
grestore
gsave
/o {
gsave
newpath
translate
0 0 m
0 -2 l
stroke
grestore
} bind def
94.1436 388.8 o
grestore
gsave
/o {
gsave
newpath
translate
0 0 m
0 2 l
stroke
grestore
} bind def
124.226 43.2 o
grestore
gsave
/o {
gsave
newpath
translate
0 0 m
0 -2 l
stroke
grestore
} bind def
124.226 388.8 o
grestore
gsave
/o {
gsave
newpath
translate
0 0 m
0 2 l
stroke
grestore
} bind def
139.501 43.2 o
grestore
gsave
/o {
gsave
newpath
translate
0 0 m
0 -2 l
stroke
grestore
} bind def
139.501 388.8 o
grestore
gsave
/o {
gsave
newpath
translate
0 0 m
0 2 l
stroke
grestore
} bind def
150.338 43.2 o
grestore
gsave
/o {
gsave
newpath
translate
0 0 m
0 -2 l
stroke
grestore
} bind def
150.338 388.8 o
grestore
gsave
/o {
gsave
newpath
translate
0 0 m
0 2 l
stroke
grestore
} bind def
158.745 43.2 o
grestore
gsave
/o {
gsave
newpath
translate
0 0 m
0 -2 l
stroke
grestore
} bind def
158.745 388.8 o
grestore
gsave
/o {
gsave
newpath
translate
0 0 m
0 2 l
stroke
grestore
} bind def
165.613 43.2 o
grestore
gsave
/o {
gsave
newpath
translate
0 0 m
0 -2 l
stroke
grestore
} bind def
165.613 388.8 o
grestore
gsave
/o {
gsave
newpath
translate
0 0 m
0 2 l
stroke
grestore
} bind def
171.421 43.2 o
grestore
gsave
/o {
gsave
newpath
translate
0 0 m
0 -2 l
stroke
grestore
} bind def
171.421 388.8 o
grestore
gsave
/o {
gsave
newpath
translate
0 0 m
0 2 l
stroke
grestore
} bind def
176.451 43.2 o
grestore
gsave
/o {
gsave
newpath
translate
0 0 m
0 -2 l
stroke
grestore
} bind def
176.451 388.8 o
grestore
gsave
/o {
gsave
newpath
translate
0 0 m
0 2 l
stroke
grestore
} bind def
180.888 43.2 o
grestore
gsave
/o {
gsave
newpath
translate
0 0 m
0 -2 l
stroke
grestore
} bind def
180.888 388.8 o
grestore
gsave
/o {
gsave
newpath
translate
0 0 m
0 2 l
stroke
grestore
} bind def
210.97 43.2 o
grestore
gsave
/o {
gsave
newpath
translate
0 0 m
0 -2 l
stroke
grestore
} bind def
210.97 388.8 o
grestore
gsave
/o {
gsave
newpath
translate
0 0 m
0 2 l
stroke
grestore
} bind def
226.245 43.2 o
grestore
gsave
/o {
gsave
newpath
translate
0 0 m
0 -2 l
stroke
grestore
} bind def
226.245 388.8 o
grestore
gsave
/o {
gsave
newpath
translate
0 0 m
0 2 l
stroke
grestore
} bind def
237.083 43.2 o
grestore
gsave
/o {
gsave
newpath
translate
0 0 m
0 -2 l
stroke
grestore
} bind def
237.083 388.8 o
grestore
gsave
/o {
gsave
newpath
translate
0 0 m
0 2 l
stroke
grestore
} bind def
245.49 43.2 o
grestore
gsave
/o {
gsave
newpath
translate
0 0 m
0 -2 l
stroke
grestore
} bind def
245.49 388.8 o
grestore
gsave
/o {
gsave
newpath
translate
0 0 m
0 2 l
stroke
grestore
} bind def
252.358 43.2 o
grestore
gsave
/o {
gsave
newpath
translate
0 0 m
0 -2 l
stroke
grestore
} bind def
252.358 388.8 o
grestore
gsave
/o {
gsave
newpath
translate
0 0 m
0 2 l
stroke
grestore
} bind def
258.166 43.2 o
grestore
gsave
/o {
gsave
newpath
translate
0 0 m
0 -2 l
stroke
grestore
} bind def
258.166 388.8 o
grestore
gsave
/o {
gsave
newpath
translate
0 0 m
0 2 l
stroke
grestore
} bind def
263.196 43.2 o
grestore
gsave
/o {
gsave
newpath
translate
0 0 m
0 -2 l
stroke
grestore
} bind def
263.196 388.8 o
grestore
gsave
/o {
gsave
newpath
translate
0 0 m
0 2 l
stroke
grestore
} bind def
267.633 43.2 o
grestore
gsave
/o {
gsave
newpath
translate
0 0 m
0 -2 l
stroke
grestore
} bind def
267.633 388.8 o
grestore
gsave
/o {
gsave
newpath
translate
0 0 m
0 2 l
stroke
grestore
} bind def
297.715 43.2 o
grestore
gsave
/o {
gsave
newpath
translate
0 0 m
0 -2 l
stroke
grestore
} bind def
297.715 388.8 o
grestore
gsave
/o {
gsave
newpath
translate
0 0 m
0 2 l
stroke
grestore
} bind def
312.99 43.2 o
grestore
gsave
/o {
gsave
newpath
translate
0 0 m
0 -2 l
stroke
grestore
} bind def
312.99 388.8 o
grestore
gsave
/o {
gsave
newpath
translate
0 0 m
0 2 l
stroke
grestore
} bind def
323.828 43.2 o
grestore
gsave
/o {
gsave
newpath
translate
0 0 m
0 -2 l
stroke
grestore
} bind def
323.828 388.8 o
grestore
gsave
/o {
gsave
newpath
translate
0 0 m
0 2 l
stroke
grestore
} bind def
332.234 43.2 o
grestore
gsave
/o {
gsave
newpath
translate
0 0 m
0 -2 l
stroke
grestore
} bind def
332.234 388.8 o
grestore
gsave
/o {
gsave
newpath
translate
0 0 m
0 2 l
stroke
grestore
} bind def
339.103 43.2 o
grestore
gsave
/o {
gsave
newpath
translate
0 0 m
0 -2 l
stroke
grestore
} bind def
339.103 388.8 o
grestore
gsave
/o {
gsave
newpath
translate
0 0 m
0 2 l
stroke
grestore
} bind def
344.91 43.2 o
grestore
gsave
/o {
gsave
newpath
translate
0 0 m
0 -2 l
stroke
grestore
} bind def
344.91 388.8 o
grestore
gsave
/o {
gsave
newpath
translate
0 0 m
0 2 l
stroke
grestore
} bind def
349.941 43.2 o
grestore
gsave
/o {
gsave
newpath
translate
0 0 m
0 -2 l
stroke
grestore
} bind def
349.941 388.8 o
grestore
gsave
/o {
gsave
newpath
translate
0 0 m
0 2 l
stroke
grestore
} bind def
354.378 43.2 o
grestore
gsave
/o {
gsave
newpath
translate
0 0 m
0 -2 l
stroke
grestore
} bind def
354.378 388.8 o
grestore
gsave
/o {
gsave
newpath
translate
0 0 m
0 2 l
stroke
grestore
} bind def
384.46 43.2 o
grestore
gsave
/o {
gsave
newpath
translate
0 0 m
0 -2 l
stroke
grestore
} bind def
384.46 388.8 o
grestore
gsave
/o {
gsave
newpath
translate
0 0 m
0 2 l
stroke
grestore
} bind def
399.735 43.2 o
grestore
gsave
/o {
gsave
newpath
translate
0 0 m
0 -2 l
stroke
grestore
} bind def
399.735 388.8 o
grestore
gsave
/o {
gsave
newpath
translate
0 0 m
0 2 l
stroke
grestore
} bind def
410.573 43.2 o
grestore
gsave
/o {
gsave
newpath
translate
0 0 m
0 -2 l
stroke
grestore
} bind def
410.573 388.8 o
grestore
gsave
/o {
gsave
newpath
translate
0 0 m
0 2 l
stroke
grestore
} bind def
418.979 43.2 o
grestore
gsave
/o {
gsave
newpath
translate
0 0 m
0 -2 l
stroke
grestore
} bind def
418.979 388.8 o
grestore
gsave
/o {
gsave
newpath
translate
0 0 m
0 2 l
stroke
grestore
} bind def
425.848 43.2 o
grestore
gsave
/o {
gsave
newpath
translate
0 0 m
0 -2 l
stroke
grestore
} bind def
425.848 388.8 o
grestore
gsave
/o {
gsave
newpath
translate
0 0 m
0 2 l
stroke
grestore
} bind def
431.655 43.2 o
grestore
gsave
/o {
gsave
newpath
translate
0 0 m
0 -2 l
stroke
grestore
} bind def
431.655 388.8 o
grestore
gsave
/o {
gsave
newpath
translate
0 0 m
0 2 l
stroke
grestore
} bind def
436.686 43.2 o
grestore
gsave
/o {
gsave
newpath
translate
0 0 m
0 -2 l
stroke
grestore
} bind def
436.686 388.8 o
grestore
gsave
/o {
gsave
newpath
translate
0 0 m
0 2 l
stroke
grestore
} bind def
441.123 43.2 o
grestore
gsave
/o {
gsave
newpath
translate
0 0 m
0 -2 l
stroke
grestore
} bind def
441.123 388.8 o
grestore
gsave
/o {
gsave
newpath
translate
0 0 m
0 2 l
stroke
grestore
} bind def
471.205 43.2 o
grestore
gsave
/o {
gsave
newpath
translate
0 0 m
0 -2 l
stroke
grestore
} bind def
471.205 388.8 o
grestore
gsave
/o {
gsave
newpath
translate
0 0 m
0 2 l
stroke
grestore
} bind def
486.48 43.2 o
grestore
gsave
/o {
gsave
newpath
translate
0 0 m
0 -2 l
stroke
grestore
} bind def
486.48 388.8 o
grestore
gsave
/o {
gsave
newpath
translate
0 0 m
0 2 l
stroke
grestore
} bind def
497.318 43.2 o
grestore
gsave
/o {
gsave
newpath
translate
0 0 m
0 -2 l
stroke
grestore
} bind def
497.318 388.8 o
grestore
gsave
/o {
gsave
newpath
translate
0 0 m
0 2 l
stroke
grestore
} bind def
505.724 43.2 o
grestore
gsave
/o {
gsave
newpath
translate
0 0 m
0 -2 l
stroke
grestore
} bind def
505.724 388.8 o
grestore
gsave
/o {
gsave
newpath
translate
0 0 m
0 2 l
stroke
grestore
} bind def
512.593 43.2 o
grestore
gsave
/o {
gsave
newpath
translate
0 0 m
0 -2 l
stroke
grestore
} bind def
512.593 388.8 o
grestore
gsave
/o {
gsave
newpath
translate
0 0 m
0 2 l
stroke
grestore
} bind def
518.4 43.2 o
grestore
gsave
/o {
gsave
newpath
translate
0 0 m
0 -2 l
stroke
grestore
} bind def
518.4 388.8 o
grestore
/BitstreamVeraSans-Roman findfont
12.000 scalefont
setfont
gsave
264.254687 9.496875 translate
0.000000 rotate
0.000000 1.578125 m /t glyphshow
4.705078 1.578125 m /i glyphshow
8.039062 1.578125 m /m glyphshow
19.728516 1.578125 m /e glyphshow
27.111328 1.578125 m /space glyphshow
30.925781 1.578125 m /parenleft glyphshow
35.607422 1.578125 m /m glyphshow
47.296875 1.578125 m /i glyphshow
50.630859 1.578125 m /n glyphshow
58.236328 1.578125 m /parenright glyphshow
grestore
gsave
/o {
gsave
newpath
translate
0 0 m
4 0 l
stroke
grestore
} bind def
72 43.2 o
grestore
gsave
/o {
gsave
newpath
translate
0 0 m
-4 0 l
stroke
grestore
} bind def
518.4 43.2 o
grestore
gsave
41.000000 36.200000 translate
0.000000 rotate
/BitstreamVeraSans-Roman findfont
12.0 scalefont
setfont
0.000000 1.465625 moveto
/one glyphshow

7.634766 1.465625 moveto
/zero glyphshow

/BitstreamVeraSans-Roman findfont
8.4 scalefont
setfont
15.269531 7.765625 moveto
/hyphen glyphshow

18.300586 7.765625 moveto
/two glyphshow


grestore
gsave
/o {
gsave
newpath
translate
0 0 m
4 0 l
stroke
grestore
} bind def
72 211.571 o
grestore
gsave
/o {
gsave
newpath
translate
0 0 m
-4 0 l
stroke
grestore
} bind def
518.4 211.571 o
grestore
gsave
41.000000 204.570517 translate
0.000000 rotate
/BitstreamVeraSans-Roman findfont
12.0 scalefont
setfont
0.000000 1.575000 moveto
/one glyphshow

7.634766 1.575000 moveto
/zero glyphshow

/BitstreamVeraSans-Roman findfont
8.4 scalefont
setfont
15.269531 7.875000 moveto
/hyphen glyphshow

18.300586 7.875000 moveto
/one glyphshow


grestore
gsave
/o {
gsave
newpath
translate
0 0 m
4 0 l
stroke
grestore
} bind def
72 379.941 o
grestore
gsave
/o {
gsave
newpath
translate
0 0 m
-4 0 l
stroke
grestore
} bind def
518.4 379.941 o
grestore
gsave
44.000000 372.941034 translate
0.000000 rotate
/BitstreamVeraSans-Roman findfont
12.0 scalefont
setfont
0.000000 1.465625 moveto
/one glyphshow

7.634766 1.465625 moveto
/zero glyphshow

/BitstreamVeraSans-Roman findfont
8.4 scalefont
setfont
15.269531 7.765625 moveto
/zero glyphshow


grestore
gsave
/o {
gsave
newpath
translate
0 0 m
2 0 l
stroke
grestore
} bind def
72 93.8846 o
grestore
gsave
/o {
gsave
newpath
translate
0 0 m
-2 0 l
stroke
grestore
} bind def
518.4 93.8846 o
grestore
gsave
/o {
gsave
newpath
translate
0 0 m
2 0 l
stroke
grestore
} bind def
72 123.533 o
grestore
gsave
/o {
gsave
newpath
translate
0 0 m
-2 0 l
stroke
grestore
} bind def
518.4 123.533 o
grestore
gsave
/o {
gsave
newpath
translate
0 0 m
2 0 l
stroke
grestore
} bind def
72 144.569 o
grestore
gsave
/o {
gsave
newpath
translate
0 0 m
-2 0 l
stroke
grestore
} bind def
518.4 144.569 o
grestore
gsave
/o {
gsave
newpath
translate
0 0 m
2 0 l
stroke
grestore
} bind def
72 160.886 o
grestore
gsave
/o {
gsave
newpath
translate
0 0 m
-2 0 l
stroke
grestore
} bind def
518.4 160.886 o
grestore
gsave
/o {
gsave
newpath
translate
0 0 m
2 0 l
stroke
grestore
} bind def
72 174.218 o
grestore
gsave
/o {
gsave
newpath
translate
0 0 m
-2 0 l
stroke
grestore
} bind def
518.4 174.218 o
grestore
gsave
/o {
gsave
newpath
translate
0 0 m
2 0 l
stroke
grestore
} bind def
72 185.49 o
grestore
gsave
/o {
gsave
newpath
translate
0 0 m
-2 0 l
stroke
grestore
} bind def
518.4 185.49 o
grestore
gsave
/o {
gsave
newpath
translate
0 0 m
2 0 l
stroke
grestore
} bind def
72 195.254 o
grestore
gsave
/o {
gsave
newpath
translate
0 0 m
-2 0 l
stroke
grestore
} bind def
518.4 195.254 o
grestore
gsave
/o {
gsave
newpath
translate
0 0 m
2 0 l
stroke
grestore
} bind def
72 203.866 o
grestore
gsave
/o {
gsave
newpath
translate
0 0 m
-2 0 l
stroke
grestore
} bind def
518.4 203.866 o
grestore
gsave
/o {
gsave
newpath
translate
0 0 m
2 0 l
stroke
grestore
} bind def
72 262.255 o
grestore
gsave
/o {
gsave
newpath
translate
0 0 m
-2 0 l
stroke
grestore
} bind def
518.4 262.255 o
grestore
gsave
/o {
gsave
newpath
translate
0 0 m
2 0 l
stroke
grestore
} bind def
72 291.904 o
grestore
gsave
/o {
gsave
newpath
translate
0 0 m
-2 0 l
stroke
grestore
} bind def
518.4 291.904 o
grestore
gsave
/o {
gsave
newpath
translate
0 0 m
2 0 l
stroke
grestore
} bind def
72 312.94 o
grestore
gsave
/o {
gsave
newpath
translate
0 0 m
-2 0 l
stroke
grestore
} bind def
518.4 312.94 o
grestore
gsave
/o {
gsave
newpath
translate
0 0 m
2 0 l
stroke
grestore
} bind def
72 329.256 o
grestore
gsave
/o {
gsave
newpath
translate
0 0 m
-2 0 l
stroke
grestore
} bind def
518.4 329.256 o
grestore
gsave
/o {
gsave
newpath
translate
0 0 m
2 0 l
stroke
grestore
} bind def
72 342.588 o
grestore
gsave
/o {
gsave
newpath
translate
0 0 m
-2 0 l
stroke
grestore
} bind def
518.4 342.588 o
grestore
gsave
/o {
gsave
newpath
translate
0 0 m
2 0 l
stroke
grestore
} bind def
72 353.86 o
grestore
gsave
/o {
gsave
newpath
translate
0 0 m
-2 0 l
stroke
grestore
} bind def
518.4 353.86 o
grestore
gsave
/o {
gsave
newpath
translate
0 0 m
2 0 l
stroke
grestore
} bind def
72 363.624 o
grestore
gsave
/o {
gsave
newpath
translate
0 0 m
-2 0 l
stroke
grestore
} bind def
518.4 363.624 o
grestore
gsave
/o {
gsave
newpath
translate
0 0 m
2 0 l
stroke
grestore
} bind def
72 372.237 o
grestore
gsave
/o {
gsave
newpath
translate
0 0 m
-2 0 l
stroke
grestore
} bind def
518.4 372.237 o
grestore
gsave
36.000000 174.523438 translate
90.000000 rotate
0.000000 1.578125 m /d glyphshow
7.617188 1.578125 m /r glyphshow
12.550781 1.578125 m /a glyphshow
19.904297 1.578125 m /w glyphshow
29.718750 1.578125 m /d glyphshow
37.335938 1.578125 m /o glyphshow
44.677734 1.578125 m /w glyphshow
54.492188 1.578125 m /n glyphshow
62.097656 1.578125 m /space glyphshow
65.912109 1.578125 m /parenleft glyphshow
70.593750 1.578125 m /f glyphshow
74.568359 1.578125 m /t glyphshow
79.273438 1.578125 m /parenright glyphshow
grestore
1.000 setlinewidth
2 setlinecap
gsave
72 388.8 m
518.4 388.8 l
stroke
grestore
gsave
518.4 43.2 m
518.4 388.8 l
stroke
grestore
gsave
72 43.2 m
518.4 43.2 l
stroke
grestore
gsave
72 43.2 m
72 388.8 l
stroke
grestore

end
showpage
